<?xml version="1.0" encoding="UTF-8" standalone="no"?>
<!-- Created with Inkscape (http://www.inkscape.org/) -->

<svg
   xmlns:dc="http://purl.org/dc/elements/1.1/"
   xmlns:cc="http://creativecommons.org/ns#"
   xmlns:rdf="http://www.w3.org/1999/02/22-rdf-syntax-ns#"
   xmlns:svg="http://www.w3.org/2000/svg"
   xmlns="http://www.w3.org/2000/svg"
   xmlns:xlink="http://www.w3.org/1999/xlink"
   xmlns:sodipodi="http://sodipodi.sourceforge.net/DTD/sodipodi-0.dtd"
   xmlns:inkscape="http://www.inkscape.org/namespaces/inkscape"
   version="1.1"
   id="svg1880"
   xml:space="preserve"
   width="403.18466"
   height="31.852665"
   viewBox="0 0 403.18468 31.852665"
   sodipodi:docname="exon_8b_sequence_stop.svg"
   inkscape:version="0.92.4 (5da689c313, 2019-01-14)"><metadata
     id="metadata1886"><rdf:RDF><cc:Work
         rdf:about=""><dc:format>image/svg+xml</dc:format><dc:type
           rdf:resource="http://purl.org/dc/dcmitype/StillImage" /><dc:title></dc:title></cc:Work></rdf:RDF></metadata><defs
     id="defs1884"><marker
       inkscape:stockid="Arrow2Mend"
       orient="auto"
       refY="0"
       refX="0"
       id="Arrow2Mend"
       style="overflow:visible"
       inkscape:isstock="true"><path
         id="path6913"
         style="fill:#ff0000;fill-opacity:1;fill-rule:evenodd;stroke:#ff0000;stroke-width:0.625;stroke-linejoin:round;stroke-opacity:1"
         d="M 8.7185878,4.0337352 -2.2072895,0.01601326 8.7185884,-4.0017078 c -1.7454984,2.3720609 -1.7354408,5.6174519 -6e-7,8.035443 z"
         transform="scale(-0.6)"
         inkscape:connector-curvature="0" /></marker><clipPath
       clipPathUnits="userSpaceOnUse"
       id="clipPath1910"><path
         d="M 223.03999,121.44 H 833.12 V 254.72 H 223.03999 Z"
         id="path1908"
         inkscape:connector-curvature="0"
         style="clip-rule:evenodd" /></clipPath><clipPath
       clipPathUnits="userSpaceOnUse"
       id="clipPath1952"><path
         d="m 402.88,353.28 v 42.23999 H 812.64001 V 353.28 Z"
         id="path1950"
         inkscape:connector-curvature="0"
         style="clip-rule:evenodd" /></clipPath><clipPath
       clipPathUnits="userSpaceOnUse"
       id="clipPath1980"><path
         d="m 17479.5,8092.48 h 48.301 v 382.0796 h -48.301 z"
         id="path1978"
         inkscape:connector-curvature="0"
         style="clip-rule:evenodd" /></clipPath><clipPath
       clipPathUnits="userSpaceOnUse"
       id="clipPath1992"><path
         d="m 402.88,394.72 h 326.08002 v 0.79999 H 402.88 Z"
         id="path1990"
         inkscape:connector-curvature="0"
         style="clip-rule:evenodd" /></clipPath><clipPath
       clipPathUnits="userSpaceOnUse"
       id="clipPath2108"><path
         d="m 784.96002,264.64001 h 36 v 10.71998 h -36 z"
         id="path2106"
         inkscape:connector-curvature="0"
         style="clip-rule:evenodd" /></clipPath><clipPath
       clipPathUnits="userSpaceOnUse"
       id="clipPath2118"><path
         d="M 241.75999,264.64001 V 665.12 H 820.96002 V 264.64001 Z"
         id="path2116"
         inkscape:connector-curvature="0"
         style="clip-rule:evenodd" /></clipPath><clipPath
       clipPathUnits="userSpaceOnUse"
       id="clipPath2144"><path
         d="M 241.75999,264.64001 V 665.12 H 820.96002 V 264.64001 Z m 160.16002,58.87998 -0.16,0.32001 -0.80002,0.80001 -0.16,0.31998 -0.63999,0.64002 -0.16,0.32 -0.64001,0.63999 -0.15998,0.32 -0.80002,0.79999 -0.16,0.32001 -0.63998,0.64001 -0.16001,0.31998 -0.64001,0.64002 v 0.32 h -0.31998 v -0.32 l -1.28,-1.28 h -0.16 V 328 l -1.28,-1.28 h -0.16 v -0.32001 l -0.32001,-0.32 h -0.16 l -0.16001,0.32 -0.63998,1.92002 -0.16001,0.32 -0.48001,1.43998 v 0.32 l -0.47998,-0.16 -0.64001,-0.31998 -0.48001,-0.16 -0.95999,-0.48001 -0.47999,-0.16 -0.96002,-0.47999 -0.47998,-0.16 L 386.56,328.16 386.07999,328 385.12,327.51999 l -0.47999,-0.16 L 384,327.04001 383.51999,326.88 382.56,326.39999 h -0.48001 l 2.88,2.88001 0.32001,0.16 2.39999,2.4 -0.79999,0.16 -5.76,0.95999 0.32,0.16001 0.16001,0.16 0.32,0.16 0.15998,0.16001 0.32,0.16 0.16001,0.16 0.32,0.15998 0.16001,0.16 0.31998,0.16 0.16,0.16001 0.32001,0.16 0.16,0.16 0.32001,0.16001 0.16,0.16 0.63999,0.31998 0.16,0.16 0.32001,0.16001 0.16,0.16 0.31998,0.16 0.32,0.32001 -0.63998,0.31998 -0.16,0.16 -0.64002,0.32001 -0.16,0.16 -0.63999,0.32001 -0.16,0.16 -0.64001,0.31998 -0.15998,0.16 -0.64001,0.32001 -0.16001,0.16 -0.63998,0.32001 -0.16,0.15998 1.6,0.16 v -0.16 l 1.75998,-0.15998 1.92001,-0.16 1.76001,-0.16001 H 389.28 l -0.16,0.16001 -1.12,3.35998 V 342.88 l 0.16,-0.16 3.84,-1.92001 h 0.32001 v 0.96002 h 0.16 V 342.72 h 0.16 v 0.95999 h 0.15998 v 0.96002 h 0.16 v 0.96 H 393.12 V 346.56 h 0.16 v 0.64001 l 0.16,-0.32001 0.16001,-0.48001 0.16,-0.32 0.16,-0.47998 0.15998,-0.32001 0.16,-0.48001 0.16,-0.31998 L 394.56,344 l 0.16,-0.32001 0.16,-0.47998 0.16001,-0.32001 0.16,-0.48001 0.15998,-0.32 0.16,-0.47998 0.16,-0.32001 L 395.84,340.79999 396,340.48001 396.16,340 h 0.16001 l 0.16,0.16 v 0.32001 h 0.16 l 0.31998,0.31998 V 341.12 H 397.12 l 0.32,0.32 v 0.32001 h 0.16001 l 0.32,0.31998 v 0.32 h 0.15998 l 0.32,0.32001 v 0.32001 H 398.56 l 0.32,0.31998 v 0.32 h 0.16001 L 399.35999,344 v 0.32001 h 0.16 l 0.32001,0.32 v 0.31998 H 400 l 0.16,0.16001 v -0.16001 l 0.32001,-1.6 0.16,-0.96 0.31998,-1.6 0.16001,-0.95999 0.16,-0.32001 h 0.16 l 0.32001,0.16 0.16,0.16001 0.31998,0.16 0.16,0.16 0.32001,0.16001 0.16,0.16 0.32001,0.16 0.15998,0.15998 0.32,0.16 0.16001,0.16001 0.32,0.16 0.16001,0.16 0.32,0.16001 0.15998,0.16 0.32001,0.16 0.16,0.15998 0.32001,0.16 0.32,0.32001 0.31998,0.16 0.16,0.16 0.32001,0.16001 0.16,0.16 0.32001,0.15998 v -0.15998 h -0.16 V 342.72 H 406.88 v -0.48001 h -0.16 v -0.47998 h -0.16 V 341.28 h -0.16001 v -0.48001 h -0.16 V 340.16 h -0.16 v -0.48001 h -0.15998 v -0.47998 h -0.16 V 338.72 h -0.16 v -0.48001 H 405.44 v -0.47998 h 0.16001 l 3.51999,0.16 2.88,0.15998 v -0.15998 l -1.28,-0.64001 -0.16,-0.16 -2.23999,-1.12 -0.16001,-0.16 -1.28,-0.63999 h -0.32 V 334.88 l 4.79999,-2.39999 -0.47999,-0.16 -1.11999,-0.16001 -0.96002,-0.16 -3.35999,-0.48001 -0.16,-0.16 0.16,-0.31998 0.48001,-0.48001 0.15998,-0.32001 0.48001,-0.47998 0.16,-0.32001 0.48001,-0.48001 0.15998,-0.31998 0.16,-0.16 h -0.47998 l -1.12,0.16 -0.96002,0.15998 -1.11999,0.16 -0.96,0.16001 -1.11999,0.16 -0.32001,0.16 v -0.16 l 0.48001,-5.28 0.15998,-0.48001 z m -20.32,2.56 0.16,0.16 v -0.16 z m 0.16,0.16 0.31998,0.16 v -0.16 z m -0.48001,13.28 0.16,0.16 v -0.16 z"
         id="path2142"
         inkscape:connector-curvature="0"
         style="clip-rule:evenodd" /></clipPath><clipPath
       clipPathUnits="userSpaceOnUse"
       id="clipPath2150"><path
         d="m 375.67999,319.35999 h 42.08002 v 35.04 h -42.08002 z"
         id="path2148"
         inkscape:connector-curvature="0"
         style="clip-rule:evenodd" /></clipPath><mask
       maskUnits="userSpaceOnUse"
       x="0"
       y="0"
       width="1"
       height="1"
       id="mask2154"><image
         width="1"
         height="1"
         style="image-rendering:optimizeSpeed"
         preserveAspectRatio="none"
         xlink:href="data:image/png;base64,iVBORw0KGgoAAAANSUhEUgAAACkAAAAiCAAAAADnzK/pAAAAAXNCSVQI5gpbmQAAAgNJREFUOI3FlMlyGzEMRBvgMuRojZT8/wemyrI1npUEkIMly5LtXI0j+QpgowECPxn0nwu7O3DfgOwdfUXSY2qOq2zymWTHV5aZCeC4O+a66EfSAyDXBF2qmIFjwrxYWB/38/m+kAcAzluexrGIuvbozufaHn9nZXaAmn0kVd1mP/WvY/HrQ8p+2f7ZkostWKdZ7U47xdVmlWNM+8M6hvawTyTIu10jRT7mtPlMfNhudqPmtglRY3S89kr1dCa69NUBADGAmHLO7So6F2JgItfEoMMoVwscAApt26YmNT4Ez0TMRCAmhirHhsXsUp3Tr12OTXJ81xeCS5Sm/rTUW5diu20CuwenCB46S5FbdRD7EBw/WAoyGZ6fzrNec+ryUqtS+8l9g5k+9tOnFPjTCKoYiFSuisg1m012JnbPmsxjQda3l3oAFLeHbaw9x/gmyghmIJPhaVATefeI2GMY1Zq9IwLBjMiKkNfSnYqhlmt1K90EU7/LSeCdVfFex1dqPXMZFGZ2UWRWpmlcLCXpZ3al69Vp9/elAHM/y2XuLlMHgOv8jJJ9GJ/6Nfx47rtdKzeJ/qa0dqPaft/0p26iPEzDOGcs9hU5kLllGV/7oVg7zKIyUdXPJEwAqhO6cSnS1VlNhN6X43HfyfHcDWJ1qWK4+xwexyckmu+39xsSxLAvwR+Of/V2GkiyMFuOAAAAAElFTkSuQmCC"
         id="image2156" /></mask><clipPath
       clipPathUnits="userSpaceOnUse"
       id="clipPath2166"><path
         d="M 241.75999,264.64001 V 665.12 H 820.96002 V 264.64001 Z"
         id="path2164"
         inkscape:connector-curvature="0"
         style="clip-rule:evenodd" /></clipPath><clipPath
       clipPathUnits="userSpaceOnUse"
       id="clipPath2192"><path
         d="M 306.72,419.04001 H 792.79999 V 665.12 H 306.72 Z"
         id="path2190"
         inkscape:connector-curvature="0"
         style="clip-rule:evenodd" /></clipPath><clipPath
       clipPathUnits="userSpaceOnUse"
       id="clipPath2198"><path
         d="M 283.04001,179.36 H 1491.84 V 703.03998 H 283.04001 Z"
         id="path2196"
         inkscape:connector-curvature="0"
         style="clip-rule:evenodd" /></clipPath><clipPath
       clipPathUnits="userSpaceOnUse"
       id="clipPath2210"><path
         d="m 306.72,409.76001 h 486.07999 v 10.56 H 306.72 Z"
         id="path2208"
         inkscape:connector-curvature="0"
         style="clip-rule:evenodd" /></clipPath><clipPath
       clipPathUnits="userSpaceOnUse"
       id="clipPath2216"><path
         d="M 283.04001,218.24 H 1491.84 V 741.91998 H 283.04001 Z"
         id="path2214"
         inkscape:connector-curvature="0"
         style="clip-rule:evenodd" /></clipPath></defs><sodipodi:namedview
     pagecolor="#ffffff"
     bordercolor="#666666"
     borderopacity="1"
     objecttolerance="10"
     gridtolerance="10"
     guidetolerance="10"
     inkscape:pageopacity="0"
     inkscape:pageshadow="2"
     inkscape:window-width="1920"
     inkscape:window-height="986"
     id="namedview1882"
     showgrid="false"
     fit-margin-top="0"
     fit-margin-left="0"
     fit-margin-right="0"
     fit-margin-bottom="0"
     inkscape:zoom="0.96124772"
     inkscape:cx="-62.476711"
     inkscape:cy="22.532229"
     inkscape:window-x="-11"
     inkscape:window-y="-11"
     inkscape:window-maximized="1"
     inkscape:current-layer="g1888" /><g
     id="g1888"
     inkscape:groupmode="layer"
     inkscape:label="aaa"
     transform="translate(-403.82457,-358.92164)"><g
   id="g1916"
   transform="scale(0.041247,0.041292)"><text
   transform="translate(9767.5195,9028.3203)"
   style="font-variant:normal;font-weight:normal;font-size:327.67999268px;font-family:F2;-inkscape-font-specification:F2;writing-mode:lr-tb;fill:#000000;fill-opacity:1;fill-rule:nonzero;stroke:none"
   id="text1920"><tspan
     x="0 196.608 396.4928 589.82397 786.43201 986.31677 1182.9248 1376.256"
     y="0"
     sodipodi:role="line"
     id="tspan1918"
     style="font-style:normal;font-variant:normal;font-weight:normal;font-stretch:normal;font-family:'Courier New';-inkscape-font-specification:'Courier New'">5’..CCTG</tspan></text>

</g><g
   id="g2272"
   transform="matrix(0.73895888,0,0,0.72349446,466.93435,361.72033)"><rect
     style="fill:#fdff53;fill-opacity:1;stroke:#ff0000;stroke-width:1.48749292;stroke-linecap:round;stroke-linejoin:round;stroke-miterlimit:4;stroke-dasharray:none;stroke-opacity:1"
     id="rect6880"
     width="22.020121"
     height="19.896015"
     x="0.91722107"
     y="0.1183921" /></g><text
   id="text1926"
   style="font-style:normal;font-variant:normal;font-weight:normal;font-stretch:normal;font-size:13.93275166px;font-family:'Courier New';-inkscape-font-specification:'Courier New, Normal';font-variant-ligatures:normal;font-variant-caps:normal;font-variant-numeric:normal;font-feature-settings:normal;text-align:start;writing-mode:lr-tb;text-anchor:start;fill:#000000;fill-opacity:1;fill-rule:nonzero;stroke:none;stroke-width:0.04251948"
   transform="scale(1.0297267,0.97113147)"
   x="454.68155"
   y="383.87943"><tspan
     style="font-style:normal;font-variant:normal;font-weight:normal;font-stretch:normal;font-size:13.93275166px;font-family:'Courier New';-inkscape-font-specification:'Courier New, Normal';font-variant-ligatures:normal;font-variant-caps:normal;font-variant-numeric:normal;font-feature-settings:normal;text-align:start;writing-mode:lr-tb;text-anchor:start;stroke-width:0.04251948"
     id="tspan1924"
     sodipodi:role="line"
     y="383.87943"
     x="454.68155 461.36926">AG</tspan></text>

<g
   id="g1934"
   transform="scale(0.072281,0.072438)"><text
   transform="translate(7716.6401,5146.3999)"
   style="font-variant:normal;font-weight:normal;font-size:327.67999268px;font-family:F2;-inkscape-font-specification:F2;writing-mode:lr-tb;fill:#008000;fill-opacity:1;fill-rule:nonzero;stroke:none"
   id="text1938"><tspan
     x="0 193.33119 393.216"
     y="0"
     sodipodi:role="line"
     id="tspan1936"
     style="font-style:normal;font-variant:normal;font-weight:normal;font-stretch:normal;font-size:327.67889404px;font-family:'Courier New';-inkscape-font-specification:'Courier New, Normal';font-variant-ligatures:normal;font-variant-caps:normal;font-variant-numeric:normal;font-feature-settings:normal;text-align:start;writing-mode:lr-tb;text-anchor:start">TGA</tspan></text>

</g><g
   id="g1940"
   transform="scale(0.041247,0.041292)"><text
   transform="translate(14558.1,9028.3203)"
   style="font-style:normal;font-variant:normal;font-weight:normal;font-stretch:normal;font-size:327.66738892px;font-family:'Courier New';-inkscape-font-specification:'Courier New, Normal';font-variant-ligatures:normal;font-variant-caps:normal;font-variant-numeric:normal;font-feature-settings:normal;text-align:start;writing-mode:lr-tb;text-anchor:start;fill:#008000;fill-opacity:1;fill-rule:nonzero;stroke:none"
   id="text1944"><tspan
     x="0 196.608 393.216 589.82397 786.43201 986.31677 1179.6479 1376.256 1576.1407 1769.4719 1966.08 2165.9648 2359.2959 2555.9041 2755.7888 2949.1199 3145.728 3342.3359 3542.2207 3735.552 3932.1599 4132.0449 4325.376 4521.9839 4721.8687"
     y="0"
     sodipodi:role="line"
     id="tspan1942">GGGGAAGCCAGATACCTTGGGCTTC</tspan></text>

</g><g
   id="g1946"><g
     id="g1948"
     clip-path="url(#clipPath1952)"><path
       d="m 484.31,376.95001 v 0 h 319.96002 v 0.84998 H 484.31 Z"
       style="fill:#008000;fill-opacity:1;fill-rule:nonzero;stroke:none"
       id="path1954"
       inkscape:connector-curvature="0" /></g></g><text
   id="text1960"
   style="font-style:normal;font-variant:normal;font-weight:normal;font-stretch:normal;font-size:13.52266693px;font-family:'Courier New';-inkscape-font-specification:'Courier New, Normal';font-variant-ligatures:normal;font-variant-caps:normal;font-variant-numeric:normal;font-feature-settings:normal;text-align:start;writing-mode:lr-tb;text-anchor:start;fill:#008000;fill-opacity:1;fill-rule:nonzero;stroke:none;stroke-width:0.04126949"
   transform="scale(0.99945495,1.0005453)"
   x="403.10059"
   y="390.34338"><tspan
     id="tspan1958"
     sodipodi:role="line"
     y="390.34338"
     x="403.10059 411.07928 419.3284 427.44232 435.42102 443.67017 451.78406 459.89798 467.87665 476.12579 484.23972 492.21838 500.46753 508.58145 516.56012 524.80927 532.92322 541.71326 549.69196 557.9411 566.05499 574.16888 582.28284 590.39673 598.51068 606.62457 614.73846 622.85236 630.96631 639.0802 647.19415 655.17279 663.42194 671.53583 679.78497 687.76367 695.87762 704.12677 712.10541 720.2193"
     style="font-style:normal;font-variant:normal;font-weight:normal;font-stretch:normal;font-size:13.52266693px;font-family:'Courier New';-inkscape-font-specification:'Courier New, Normal';font-variant-ligatures:normal;font-variant-caps:normal;font-variant-numeric:normal;font-feature-settings:normal;text-align:start;writing-mode:lr-tb;text-anchor:start;stroke-width:0.04126949">TTATTTTCCCATCCTGCCCTTATTCTTGGAAGGTCCTCAG</tspan></text>

<text
   id="text1966"
   style="font-style:normal;font-variant:normal;font-weight:normal;font-stretch:normal;font-size:15.14400005px;font-family:'Courier New';-inkscape-font-specification:'Courier New, Normal';font-variant-ligatures:normal;font-variant-caps:normal;font-variant-numeric:normal;font-feature-settings:normal;text-align:start;writing-mode:lr-tb;text-anchor:start;fill:#000000;fill-opacity:1;fill-rule:nonzero;stroke:none;stroke-width:0.04621592"
   transform="scale(1.1192463,0.89345835)"
   x="651.14996"
   y="437.12869"><tspan
     id="tspan1964"
     sodipodi:role="line"
     y="437.12869"
     x="651.14996 658.41913"
     style="font-style:normal;font-variant:normal;font-weight:normal;font-stretch:normal;font-size:15.14400005px;font-family:'Courier New';-inkscape-font-specification:'Courier New, Normal';font-variant-ligatures:normal;font-variant-caps:normal;font-variant-numeric:normal;font-feature-settings:normal;text-align:start;writing-mode:lr-tb;text-anchor:start;stroke-width:0.04621592">GT</tspan></text>

<text
   id="text1972"
   style="font-style:normal;font-variant:normal;font-weight:normal;font-stretch:normal;font-size:13.52266693px;font-family:'Courier New';-inkscape-font-specification:'Courier New, Normal';font-variant-ligatures:normal;font-variant-caps:normal;font-variant-numeric:normal;font-feature-settings:normal;text-align:start;writing-mode:lr-tb;text-anchor:start;fill:#000000;fill-opacity:1;fill-rule:nonzero;stroke:none;stroke-width:0.04126949"
   transform="scale(0.99945495,1.0005453)"
   x="745.52521"
   y="390.34338"><tspan
     id="tspan1970"
     sodipodi:role="line"
     y="390.34338"
     x="745.52521 753.6391 761.75305 769.86694 777.98083 786.09479 794.20868 802.72827"
     style="font-style:normal;font-variant:normal;font-weight:normal;font-stretch:normal;font-size:13.52266693px;font-family:'Courier New';-inkscape-font-specification:'Courier New, Normal';font-variant-ligatures:normal;font-variant-caps:normal;font-variant-numeric:normal;font-feature-settings:normal;text-align:start;writing-mode:lr-tb;text-anchor:start;stroke-width:0.04126949">TTGT..3’</tspan></text>

<g
   id="g1974"
   transform="scale(0.046363,0.046483)"><g
     id="g1976"
     clip-path="url(#clipPath1980)"><text
   transform="translate(17479.5,8402.2402)"
   style="font-variant:normal;font-weight:normal;font-size:327.67999268px;font-family:F4;-inkscape-font-specification:F4;writing-mode:lr-tb;fill:#000000;fill-opacity:1;fill-rule:nonzero;stroke:none"
   id="text1984"><tspan
     x="0"
     y="0"
     id="tspan1982">!</tspan></text>

</g></g><g
   id="g2034"
   transform="translate(486.54999,409.73001)" />


<g
   id="g1928"
   transform="scale(0.041247,0.041292)"><text
   style="font-style:normal;font-variant:normal;font-weight:normal;font-stretch:normal;font-size:327.66738892px;font-family:'Courier New';-inkscape-font-specification:'Courier New, Normal';font-variant-ligatures:normal;font-variant-caps:normal;font-variant-numeric:normal;font-feature-settings:normal;text-align:start;writing-mode:lr-tb;text-anchor:start;fill:#008000;fill-opacity:1;fill-rule:nonzero;stroke:none"
   id="text1932"
   transform="translate(11741.9,9028.3203)"><tspan
     x="0 196.608 393.216 589.82397 786.43201 983.03998 1179.6479 1376.256 1576.1407"
     y="0"
     sodipodi:role="line"
     id="tspan1930">ATTCATCTT</tspan></text>

</g></g></svg>