<?xml version="1.0" encoding="UTF-8" standalone="no"?>
<!-- Created with Inkscape (http://www.inkscape.org/) -->

<svg
   xmlns:dc="http://purl.org/dc/elements/1.1/"
   xmlns:cc="http://creativecommons.org/ns#"
   xmlns:rdf="http://www.w3.org/1999/02/22-rdf-syntax-ns#"
   xmlns:svg="http://www.w3.org/2000/svg"
   xmlns="http://www.w3.org/2000/svg"
   xmlns:sodipodi="http://sodipodi.sourceforge.net/DTD/sodipodi-0.dtd"
   xmlns:inkscape="http://www.inkscape.org/namespaces/inkscape"
   version="1.1"
   id="svg2"
   xml:space="preserve"
   width="2043.8824"
   height="813.52356"
   viewBox="0 0 2043.8824 813.52356"
   sodipodi:docname="logo frontespizio.svg"
   inkscape:version="0.92.3 (2405546, 2018-03-11)"><metadata
     id="metadata8"><rdf:RDF><cc:Work
         rdf:about=""><dc:format>image/svg+xml</dc:format><dc:type
           rdf:resource="http://purl.org/dc/dcmitype/StillImage" /><dc:title></dc:title></cc:Work></rdf:RDF></metadata><defs
     id="defs6" /><sodipodi:namedview
     pagecolor="#ffffff"
     bordercolor="#666666"
     borderopacity="1"
     objecttolerance="10"
     gridtolerance="10"
     guidetolerance="10"
     inkscape:pageopacity="0"
     inkscape:pageshadow="2"
     inkscape:window-width="1854"
     inkscape:window-height="1043"
     id="namedview4"
     showgrid="false"
     inkscape:zoom="0.44821867"
     inkscape:cx="1114.8362"
     inkscape:cy="463.94425"
     inkscape:window-x="66"
     inkscape:window-y="0"
     inkscape:window-maximized="1"
     inkscape:current-layer="g10"
     fit-margin-top="10"
     fit-margin-left="10"
     fit-margin-right="10"
     fit-margin-bottom="10" /><g
     id="g10"
     inkscape:groupmode="layer"
     inkscape:label="logo frontespizio"
     transform="matrix(1.3333333,0,0,-1.3333333,139.80795,671.05732)"><path
   inkscape:connector-curvature="0"
   id="path14"
   style="fill:#231f20;fill-opacity:1;fill-rule:nonzero;stroke:none"
   d="m 755.637,267.312 c -25.117,-25.117 -58.516,-38.949 -94.035,-38.949 -35.524,0 -68.918,13.832 -94.04,38.949 -25.113,25.118 -38.945,58.512 -38.945,94.036 0,35.523 13.832,68.918 38.945,94.039 25.122,25.113 58.516,38.949 94.04,38.949 35.519,0 68.918,-13.836 94.035,-38.949 25.117,-25.121 38.953,-58.516 38.953,-94.039 0,-35.524 -13.836,-68.918 -38.953,-94.036 z m 1.031,189.106 c -25.391,25.391 -59.156,39.375 -95.066,39.375 -35.914,0 -69.672,-13.984 -95.071,-39.375 -25.386,-25.395 -39.375,-59.16 -39.375,-95.07 0,-35.91 13.989,-69.672 39.375,-95.063 25.399,-25.398 59.157,-39.379 95.071,-39.379 35.91,0 69.675,13.981 95.066,39.379 25.394,25.391 39.379,59.153 39.379,95.063 0,35.91 -13.985,69.675 -39.379,95.07 z m -2.68,-187.453 c -18.039,-18.039 -40.426,-30.153 -64.789,-35.363 -0.062,1.019 -0.316,5.898 0.543,8.878 0.938,3.172 4.781,4.473 4.82,4.489 1.27,0.379 1.989,0.98 2.141,1.773 0.223,1.133 -0.793,2.196 -1.219,2.578 v 3.672 c 0,0.059 -0.011,0.11 -0.035,0.16 -0.004,0.02 -0.019,0.036 -0.027,0.055 -0.02,0.027 -0.031,0.055 -0.047,0.07 l -3.629,3.953 v 3.293 c 19.246,5.868 36.68,17.547 49.563,33.129 h 0.05 v 0.059 c 0.942,1.141 1.864,2.301 2.75,3.48 13.602,18.024 20.782,39.52 20.782,62.161 0,25.531 -9.391,50.05 -26.442,69.023 -16.929,18.828 -40.051,30.762 -65.086,33.602 -0.039,0.007 -0.07,0 -0.101,-0.004 -0.465,0.343 -0.953,0.675 -1.457,1 -12.793,8 -26.875,-1.528 -27.012,-1.621 -0.039,-0.028 -0.07,-0.055 -0.094,-0.086 -23.781,-3.922 -45.558,-16.164 -61.383,-34.524 -16.128,-18.719 -25.007,-42.652 -25.007,-67.39 0,-22.887 7.328,-44.567 21.199,-62.704 12.961,-16.945 31.148,-29.648 51.402,-35.957 0,0 0,-0.003 -0.004,-0.003 l -5.769,-7.512 c -0.02,-0.02 -0.024,-0.047 -0.039,-0.063 -0.004,-0.019 -0.02,-0.027 -0.028,-0.043 -0.011,-0.054 -0.023,-0.101 -0.023,-0.156 v -3.465 c -0.375,-0.371 -1.274,-1.422 -0.965,-2.719 0.27,-1.101 1.859,-1.792 2.723,-1.839 0.281,-0.121 1.675,-0.793 2.418,-2.715 0.789,-2.012 0.672,-8.27 0.629,-9.614 -22.758,5.657 -43.629,17.391 -60.637,34.407 -24.676,24.672 -38.266,57.484 -38.266,92.383 0,34.898 13.59,67.71 38.266,92.386 24.676,24.676 57.488,38.266 92.387,38.266 34.902,0 67.71,-13.59 92.386,-38.266 24.676,-24.676 38.27,-57.488 38.27,-92.386 0,-34.899 -13.594,-67.711 -38.27,-92.383 z m -65.633,-35.539 c -2.695,-0.563 -5.421,-1.031 -8.16,-1.422 v 7.223 c 0,0.23 -0.187,0.425 -0.422,0.425 h -41.781 c -0.234,0 -0.43,-0.195 -0.43,-0.425 v -6.336 c -2.304,0.421 -4.589,0.91 -6.863,1.461 0.024,0.785 0.188,6.476 -0.441,9.3 h 59.035 c -0.141,-0.293 -0.27,-0.605 -0.359,-0.929 -0.965,-3.293 -0.629,-8.563 -0.579,-9.297 z m -9.007,-1.543 c -5.836,-0.785 -11.762,-1.192 -17.746,-1.192 -7.864,0 -15.606,0.696 -23.188,2.047 v 6.059 h 40.934 z m 13.238,15.094 c -0.91,-0.52 -1.996,-1.325 -2.797,-2.469 h -59.777 c -0.453,1.148 -1.121,1.922 -1.703,2.414 z m -33.977,7.511 c 1.336,-0.281 2.532,-0.386 3.411,-0.386 h 0.16 c 1.187,0 3.152,0 5.367,0.464 h 7.422 c 0.289,-0.363 0.636,-0.734 1.062,-1.078 0.18,-0.336 0.352,-0.777 0.352,-0.949 0,-0.68 0.957,-2.812 3.195,-2.812 0.992,0 1.469,0.488 1.66,0.937 0.41,-0.012 1.055,0.047 1.543,0.453 0.219,0.192 0.481,0.52 0.567,1.067 0.246,0.07 0.55,0.214 0.793,0.523 0.246,0.309 0.355,0.715 0.324,1.203 0.219,0.082 0.476,0.227 0.676,0.496 0.035,0.047 0.07,0.102 0.101,0.16 h 9.387 v -3.441 c 0,-0.133 0.059,-0.258 0.16,-0.336 0.348,-0.281 1.227,-1.172 1.082,-1.887 -0.105,-0.523 -0.797,-0.867 -1.41,-1.074 -0.02,0 -0.02,0.008 -0.031,0.008 l -67.118,-0.066 c -0.085,0 -0.164,-0.032 -0.226,-0.075 -0.02,0.004 -0.035,0.012 -0.039,0.012 -0.051,0.02 -0.102,0.031 -0.152,0.031 -0.571,0 -1.825,0.539 -1.981,1.192 -0.262,1.058 0.824,2 0.832,2.008 0.094,0.078 0.145,0.203 0.145,0.32 v 3.226 h 32.718 z M 643.949,262 c 0.125,-0.172 0.297,-0.289 0.504,-0.355 -0.711,-0.387 -1.664,-0.891 -2.473,-1.313 -1.984,-0.004 -3.066,-0.301 -3.378,-0.91 -0.043,-0.078 -0.067,-0.149 -0.082,-0.219 -0.801,-0.148 -1.45,-0.375 -1.45,-1.027 0,-0.485 0.289,-1.203 0.934,-1.711 0.508,-0.403 1.398,-0.813 2.785,-0.492 l 1.043,0.254 c 1.52,0.382 2.359,0.589 3.363,0.281 1.414,-0.422 5.325,-0.223 7.145,0.512 1.062,-0.708 2.191,-1.258 3.316,-1.684 h -29.324 l 5.117,6.664 z m -3.304,29.652 c -0.012,-2.082 -0.235,-6.41 -0.477,-7.75 -0.25,-1.324 -0.43,-5.05 0.559,-8.14 0.605,-1.852 1.707,-2.227 2.316,-2.285 0.25,-0.02 0.496,-0.008 0.727,0.046 0.121,-1.55 0.437,-5.918 0.437,-7.324 0,-0.574 -0.133,-1.207 -0.266,-1.832 -0.113,-0.562 -0.222,-1.078 -0.222,-1.512 h -10.313 c -0.027,0.012 -0.047,0.028 -0.074,0.036 -17.801,5.101 -34.09,15.171 -46.754,28.761 z m -32.004,4 v -3.558 h -22.473 c -1.066,1.16 -2.109,2.347 -3.125,3.558 z m -23.262,4.34 v -3.898 h -2.707 c -0.84,1.015 -1.668,2.047 -2.465,3.094 -0.207,0.265 -0.402,0.539 -0.602,0.804 z m -1.238,8.028 v -7.586 h -4.336 v 7.586 c 0,1.222 0.972,2.218 2.172,2.218 1.195,0 2.164,-0.996 2.164,-2.218 z m -5.575,3.234 h 6.813 v -10.82 h -0.793 v 7.586 c 0,1.468 -1.172,2.66 -2.609,2.66 -1.442,0 -2.614,-1.192 -2.614,-2.66 v -7.586 h -0.093 c -0.235,0.32 -0.469,0.636 -0.704,0.961 z m 0.118,2.875 h -2.082 v 1.32 h 2.082 z m -2.082,-0.441 h 1.523 v -11.68 c -0.512,0.726 -1.031,1.461 -1.523,2.195 z m 29.347,4.41 v 5.515 c 0,1.469 -1.164,2.66 -2.609,2.66 -1.434,0 -2.606,-1.191 -2.606,-2.66 v -5.515 h -1.398 v 8.816 c 0,3.953 -3.484,6.398 -6.719,6.398 -3.301,0 -6.715,-2.394 -6.715,-6.398 v -8.816 h -1.511 v 5.515 c 0,1.469 -1.176,2.66 -2.606,2.66 -1.445,0 -2.617,-1.191 -2.617,-2.66 v -5.515 h -2.566 v 9.617 l 16.015,8.582 16.024,-8.606 v -9.593 z m -4.781,0 v 5.515 c 0,1.227 0.98,2.219 2.172,2.219 1.195,0 2.168,-0.992 2.168,-2.219 v -5.515 z m -3.871,8.343 v -8.343 h -9.356 v 8.343 c 0,2.633 2.098,4.774 4.676,4.774 2.578,0 4.68,-2.141 4.68,-4.774 z m -4.68,5.219 c -2.824,0 -5.121,-2.34 -5.121,-5.219 v -8.343 h -1.152 v 8.816 c 0,3.727 3.191,5.957 6.273,5.957 3.02,0 6.27,-2.281 6.27,-5.957 v -8.816 h -1.149 v 8.343 c 0,2.879 -2.297,5.219 -5.121,5.219 z m -13.004,-13.562 v 5.515 c 0,1.227 0.973,2.219 2.172,2.219 1.188,0 2.164,-0.992 2.164,-2.219 v -5.515 z m 29.028,-2.203 h -32.039 v 1.757 h 32.039 z m -16.024,-1.711 c -2.086,0 -3.879,-1.282 -4.676,-3.122 v 2.626 h 0.688 v 1.761 h 7.98 v -1.761 h 0.688 v -2.626 c -0.801,1.84 -2.598,3.122 -4.68,3.122 z m -4.676,-5.246 c 0,2.652 2.098,4.8 4.676,4.8 2.578,0 4.68,-2.148 4.68,-4.8 v -12.844 h -9.356 z m -2.562,4.75 v -1.997 h -6.813 v 1.997 h 0.559 v 1.761 h 5.559 v -1.761 z m 0.441,0 h 1.676 v -17.59 h -1.676 z m 2.364,0.441 h -3.055 v 1.32 h 3.055 z m 11.23,-18.035 h -1.676 v 17.594 h 1.676 z m 0.688,18.035 h -3.051 v 1.32 h 3.051 z m -0.243,-2.438 v 1.997 h 0.692 v 1.761 h 5.554 v -1.761 h 0.563 v -1.997 z m 6.016,-11.257 v 7.586 c 0,1.468 -1.168,2.66 -2.617,2.66 -1.438,0 -2.606,-1.192 -2.606,-2.66 v -7.586 h -0.793 v 10.82 h 6.809 v -10.82 z m -4.777,0 v 7.586 c 0,1.222 0.964,2.218 2.16,2.218 1.199,0 2.172,-0.996 2.172,-2.218 v -7.586 z m -1.239,-0.442 h 6.805 v -3.898 h -6.805 z m 7.25,13.696 h 1.532 v -17.59 h -1.532 z m 1.532,0.441 h -2.09 v 1.32 h 2.09 z m -34.559,15.894 0.055,0.028 18.48,10.418 18.438,-10.418 0.05,-0.028 h 24.54 c 0.031,-0.429 0.062,-0.871 0.089,-1.32 h -24.515 l -18.496,10.184 -0.106,0.058 -0.105,-0.058 -18.543,-10.184 h -9.492 c -0.149,0.442 -0.297,0.883 -0.434,1.32 z m 76.039,127.805 c 0.043,-0.035 0.086,-0.062 0.133,-0.078 0.012,-0.008 0.027,-0.008 0.047,-0.016 0.031,-0.004 0.066,-0.011 0.101,-0.011 0.02,0 0.039,0 0.055,0.004 0.031,0.003 0.063,0.011 0.094,0.019 0.011,0.008 0.035,0.016 0.054,0.027 0.008,0.008 0.028,0.008 0.036,0.016 l 0.687,0.469 0.406,-0.406 c -0.406,-0.219 -0.832,-0.45 -1.257,-0.68 l -2.161,-1.156 c -3.863,-2.024 -7.722,-3.805 -7.754,-3.825 -0.113,-0.05 -0.199,-0.14 -0.234,-0.253 -0.035,-0.114 -0.023,-0.239 0.027,-0.34 l 0.133,-0.227 -5.906,-2.773 c -0.02,-0.004 -0.043,-0.02 -0.07,-0.036 -0.207,-0.16 -0.426,-0.464 -0.336,-0.808 0.121,-0.52 0.781,-0.688 1.336,-0.77 0.718,-0.109 4.972,-1.058 9.656,-2.148 0.312,-1.359 0.621,-2.805 0.633,-3.02 -0.035,-0.242 -0.633,-2.125 -1.031,-3.371 -0.411,-1.261 -0.633,-1.988 -0.676,-2.195 -0.114,-0.516 -0.012,-0.996 0.258,-1.328 0.164,-0.203 0.48,-0.449 1.046,-0.449 0.571,0 1.012,0.152 1.329,0.261 0.05,0.02 0.105,0.036 0.148,0.051 0.043,-0.258 0.051,-0.633 -0.234,-0.851 -0.102,-0.082 -0.164,-0.207 -0.164,-0.344 0.003,-0.504 0.25,-1.215 0.875,-1.488 -0.125,-0.395 -0.176,-0.926 0.218,-1.317 0.094,-0.09 0.223,-0.137 0.356,-0.121 0,0 0.39,0.031 0.488,-0.176 0.168,-0.371 0.156,-0.769 0.082,-1.019 -0.09,-0.317 -0.019,-1.203 0.508,-1.903 0.32,-0.425 0.937,-0.933 2.043,-0.933 0.828,0 2.125,0.39 3.461,0.89 0.539,-0.003 1.57,-0.168 1.742,-0.652 0.355,-0.965 0.848,-5.269 0.605,-5.824 -0.324,-0.656 -0.859,-1.047 -1.808,-1.317 -0.438,-0.125 -1.281,-0.148 -2.164,-0.171 -1.313,-0.043 -2.793,-0.086 -3.793,-0.446 -2.152,-0.777 -4.168,-2.715 -5.992,-5.754 -0.028,-0.035 -0.032,-0.074 -0.039,-0.109 -2.832,-0.805 -3.176,-2.922 -3.188,-3.023 0,-0.02 0,-0.047 0,-0.067 -3.691,-1.699 -4.726,-8.523 -4.855,-9.476 -0.286,-0.43 -1.661,-2.52 -2.864,-4.793 -0.906,1.109 -2.043,2.363 -3.476,3.73 -5.68,5.414 -7.899,8.231 -8.719,9.43 -0.023,0.027 -0.992,1.347 -1.199,2.238 l -0.02,0.106 c -0.097,0.445 -0.258,1.191 -0.98,1.808 1.383,0.391 2.008,1.668 2.183,2.555 0.879,0.297 1.438,0.726 1.664,1.277 0.258,0.621 -0.027,1.145 -0.054,1.199 -0.074,0.129 -0.215,0.211 -0.363,0.215 l -2.719,0.055 c 0.816,1.031 1.535,2.117 1.711,4.219 0.164,2.101 -0.321,3.812 -0.742,5.316 -0.262,0.938 -0.512,1.813 -0.586,2.688 -0.161,2.058 0.945,2.886 0.992,2.921 0.117,0.086 0.187,0.227 0.179,0.375 -0.011,0.145 -0.089,0.274 -0.222,0.348 -0.469,0.258 -0.942,0.156 -1.352,-0.094 0.703,5.836 -2.672,7.297 -2.828,7.36 -0.191,0.078 -0.406,0.011 -0.519,-0.164 -0.114,-0.168 -0.082,-0.395 0.062,-0.535 0.785,-0.75 1.324,-1.836 -0.031,-4.657 -0.317,-0.66 -0.52,-1.367 -0.649,-2.07 -0.004,0.039 -0.004,0.074 -0.004,0.109 -0.015,0.2 -0.164,0.364 -0.359,0.399 -0.191,0.027 -0.387,-0.078 -0.461,-0.262 -0.656,-1.57 -0.637,-2.855 -0.601,-4.637 0.007,-0.418 0.011,-0.843 0.011,-1.312 0,-1.278 -0.226,-1.957 -0.492,-2.754 -0.23,-0.676 -0.488,-1.442 -0.601,-2.656 -0.184,-1.895 0.714,-3.618 1.285,-4.489 l -15.977,0.325 c -0.14,0.004 -0.269,-0.059 -0.355,-0.172 -0.172,-0.231 -0.352,-0.7 -0.196,-1.203 l -1.57,0.039 c -1.535,0.066 -2.121,0.347 -2.461,0.582 -0.519,0.355 -0.816,0.773 -0.887,1.242 -0.086,0.578 0.196,1.117 0.375,1.344 0.243,0.308 1.059,0.836 1.911,0.707 0.875,-0.129 1.625,-0.918 2.16,-2.282 0,0 0.004,-0.003 0.004,-0.015 0.011,-0.028 0.039,-0.051 0.05,-0.074 0.016,-0.02 0.032,-0.043 0.047,-0.059 0.016,-0.023 0.043,-0.031 0.067,-0.047 0.019,-0.012 0.047,-0.031 0.07,-0.043 0.023,-0.008 0.047,-0.008 0.07,-0.012 0.028,-0.011 0.059,-0.015 0.09,-0.015 0.004,0 0.008,-0.004 0.012,0 0.027,0 0.047,0.008 0.07,0.012 0.028,0.007 0.051,0.007 0.07,0.011 0.004,0.004 0.012,0.004 0.012,0.008 0.035,0.012 0.055,0.031 0.078,0.051 0.024,0.012 0.047,0.027 0.063,0.039 0.015,0.019 0.031,0.047 0.043,0.066 0.015,0.024 0.031,0.047 0.047,0.075 0.004,0.019 0.004,0.046 0.011,0.074 0.008,0.027 0.012,0.054 0.012,0.086 0,0.004 0.004,0.011 0.004,0.015 -0.066,1.871 -0.902,3.375 -2.281,4.125 -1.34,0.731 -2.989,0.657 -4.414,-0.187 -2.426,-1.438 -3.16,-4.391 -1.703,-6.867 1.449,-2.454 4.214,-3.172 6.535,-3.496 0.226,-0.36 1.586,-1.012 9.851,-3.645 0.035,-0.016 0.067,-0.016 0.098,-0.02 1.594,-0.132 5.934,-0.554 6.879,-0.996 2.004,-0.933 6.133,-8.922 8.601,-13.695 1.172,-2.277 2.106,-4.078 2.579,-4.738 1.55,-2.778 6.558,-8.071 9.414,-8.071 2.019,0 4.089,2.375 6.484,5.137 l 1.008,1.141 c 0.312,-0.848 0.687,-1.613 1.125,-2.227 -0.399,-0.578 -0.746,-1.136 -1.004,-1.636 -1.07,-2.071 -2.555,-6.407 -1.52,-9.801 -1.5,-1.637 -4.82,-6.172 -4.152,-10.617 0.41,-2.684 0.695,-4.364 1.414,-5.239 -0.543,-1.73 -2.934,-9.695 -1.418,-12.172 0.215,-0.355 0.516,-0.593 0.871,-0.714 -0.129,-1.063 -0.48,-4.102 -0.48,-5.555 0,-1.547 0.051,-2.035 0.297,-4.047 0,-0.004 0.004,-0.008 0.004,-0.008 v -0.004 c 0,-0.011 0.156,-1.093 0.156,-2.23 0,-0.492 0.078,-1.617 0.176,-3.043 0.003,-0.098 0.011,-0.192 0.015,-0.297 h -24.394 l -18.496,10.453 -0.106,0.063 -0.113,-0.063 -18.539,-10.453 h -10.071 c -3.105,9.875 -4.707,20.246 -4.707,30.883 0,24.527 8.805,48.258 24.793,66.816 15.731,18.258 37.399,30.41 61.051,34.258 l 5.086,-4.598 z m 28.543,-18.355 -5.277,4.168 0.105,0.531 c 1.969,7.074 -2.371,11.535 -2.558,11.719 -0.168,0.168 -0.438,0.168 -0.606,0.004 -0.164,-0.168 -0.164,-0.438 0,-0.606 0.039,-0.039 3.918,-4.035 2.504,-10.258 l -0.484,0.407 c -0.039,0.027 -0.067,0.046 -0.106,0.058 0.121,0.57 0.219,1.192 0.242,1.871 0.211,4.289 -2.957,8.27 -6.175,10.313 -3.629,2.297 -6.254,2.855 -10.059,2.132 -0.965,-0.183 -2.246,-0.777 -3.73,-1.542 l -0.571,0.57 c 1.606,0.98 3.676,1.531 3.707,1.535 0.223,0.063 0.36,0.293 0.301,0.527 -0.059,0.223 -0.293,0.364 -0.523,0.301 -0.141,-0.035 -3.332,-0.883 -5.051,-2.473 l -4.582,4.149 c 0.008,0.035 0.011,0.066 0.008,0.109 2.625,1.598 14.605,8.106 25.539,1.262 11.582,-7.254 9.511,-20.367 7.316,-24.777 z m 51.191,-45.875 c 0.094,1.769 1.133,2.996 1.801,3.605 0.071,-0.469 0.192,-1.109 0.387,-1.762 0.57,-1.941 0.789,-3.281 -1.793,-5.546 -0.191,0.785 -0.473,2.203 -0.395,3.703 z m -2.214,-12.84 c 0.882,1.269 2.234,2.765 4.273,3.207 1.274,0.281 2.742,0.582 3.625,0.762 -1.035,-2.086 -2.41,-3.618 -6.441,-3.696 -0.555,-0.015 -1.043,-0.121 -1.457,-0.273 z m -0.25,2.988 c -2.102,2.008 -2.61,4.371 -1.411,6.309 0.622,-1.2 1.899,-4.032 1.586,-6.516 -0.05,0.074 -0.113,0.137 -0.175,0.207 z m -5.032,-10.457 c 0.875,0.711 2.606,1.453 4.075,1.738 1.007,0.188 2.367,0.243 3.199,0.258 -1.996,-3.117 -4.375,-3.914 -5.668,-4.105 -0.574,-0.086 -2.406,-0.067 -3.668,-0.039 0.055,0.05 0.109,0.101 0.156,0.152 0.063,0.039 0.125,0.082 0.16,0.148 0,0.004 0,0.012 0.008,0.012 0.574,0.574 1.16,1.184 1.734,1.836 z m -1.023,1.731 c -0.676,1.675 -1.852,6.722 1.062,8.855 0.34,-0.836 1.004,-2.711 0.981,-4.465 -0.027,-2.004 -1.035,-4.351 -1.887,-5.75 0,0 0,-0.004 -0.004,-0.004 -0.031,-0.043 -0.062,-0.086 -0.078,-0.129 0.094,0.516 0.106,1.047 -0.074,1.493 z m -9.973,-5.317 c 0,1.758 1.418,5.559 4.664,7.149 -0.203,-0.809 -0.472,-2.004 -0.488,-2.704 v -0.191 c -0.016,-3.723 -0.836,-6.187 -2.437,-7.312 -0.016,-0.008 -0.016,-0.02 -0.028,-0.028 -0.273,-0.168 -0.527,-0.328 -0.746,-0.465 -0.012,-0.007 -0.016,-0.011 -0.035,-0.023 -0.086,-0.039 -0.176,-0.094 -0.254,-0.149 -0.016,-0.007 -0.031,-0.023 -0.051,-0.042 -0.187,-0.118 -0.383,-0.243 -0.582,-0.372 -0.015,0.817 -0.043,2.434 -0.043,4.137 z m 1.356,-4.312 c 1.168,0.57 3.39,0.539 4.758,0.519 l 0.378,-0.004 c 1.004,-0.011 2.485,0.543 3.43,0.949 -1.125,-2.257 -4.426,-3.824 -7.113,-3.796 -1.266,0.015 -3.227,0.242 -4.352,0.39 1.024,0.735 1.992,1.383 2.899,1.946 z m -10.938,-0.614 c 1,2.368 4.016,4.473 5.547,5.422 -0.238,-0.859 -0.543,-2.051 -0.621,-2.765 -0.238,-2.305 -0.824,-5.61 -3.098,-7.692 -0.027,-0.027 -0.047,-0.058 -0.07,-0.094 -0.531,-0.433 -1.07,-0.894 -1.625,-1.363 -0.348,1.106 -1.137,4.113 -0.133,6.492 z m 2.153,-5.91 c 0,0.004 0.004,0.004 0.004,0.004 3.128,1.332 6.55,0.887 8.816,0.59 0.34,-0.039 0.664,-0.082 0.949,-0.109 0.711,-0.079 1.379,-0.055 1.949,0.015 -0.152,-0.121 -0.289,-0.238 -0.429,-0.34 -3.219,-2.531 -3.723,-2.918 -8.188,-2.589 -2.094,0.152 -4.441,0.144 -5.816,0.117 0.929,0.808 1.832,1.586 2.715,2.312 z m 1.078,-28.398 c 0.804,1.011 1.328,2.203 1.457,3.465 0.394,3.8 -2.418,5.75 -4.082,6.554 2.183,1.082 2.633,4.09 2.527,5.746 -0.012,0.227 -0.199,0.399 -0.426,0.399 h -10.215 l -0.261,0.566 c 0.062,0.004 0.125,0.012 0.191,0.008 l 0.387,-0.004 c 10.859,-0.269 15.551,2.859 17.578,5.527 0.105,0.145 0.117,0.332 0.02,0.481 -0.09,0.152 -0.27,0.23 -0.442,0.195 -0.019,0 -1.543,-0.289 -4.101,0.051 -0.29,0.039 -0.618,0.094 -0.969,0.148 -2.164,0.364 -5.723,0.95 -9.504,-0.667 0.023,0.019 0.039,0.039 0.066,0.066 1.02,0.934 2.012,1.824 2.981,2.676 0.707,0.019 3.965,0.113 6.754,-0.094 4.797,-0.352 5.48,0.187 8.773,2.766 0.563,0.441 1.199,0.937 1.949,1.503 0.176,0.129 0.223,0.368 0.114,0.551 -0.106,0.184 -0.329,0.266 -0.528,0.188 -0.015,-0.004 -1.57,-0.602 -3.496,-0.399 -0.269,0.032 -0.586,0.071 -0.93,0.114 -1.757,0.226 -4.457,0.578 -7.16,-0.004 1.086,0.879 2.129,1.683 3.125,2.418 0.137,-0.02 3.43,-0.493 5.34,-0.52 3.363,-0.035 7.598,2.16 8.285,5.367 0.032,0.16 -0.027,0.328 -0.156,0.43 -0.133,0.102 -0.301,0.117 -0.453,0.043 -0.027,-0.016 -2.621,-1.297 -3.977,-1.285 l -0.379,0.004 c -0.781,0.011 -1.75,0.027 -2.695,-0.051 1.305,0.879 2.918,2.062 4.621,3.605 0.242,-0.011 3.731,-0.125 4.68,0.02 1.531,0.226 4.43,1.203 6.676,5.172 0.074,0.129 0.074,0.293 0,0.422 -0.074,0.129 -0.215,0.207 -0.364,0.215 -0.101,0 -2.496,0.027 -4.121,-0.282 -0.734,-0.144 -1.601,-0.414 -2.418,-0.761 0.793,1.027 1.563,2.132 2.293,3.339 0.036,0.032 0.067,0.071 0.098,0.121 0.027,0.063 0.836,1.567 2.871,1.61 4.981,0.105 6.418,2.406 7.555,4.965 0.066,0.144 0.047,0.312 -0.055,0.437 -0.101,0.125 -0.262,0.184 -0.414,0.156 -0.031,-0.007 -2.48,-0.492 -4.477,-0.933 -1.339,-0.293 -2.41,-0.988 -3.23,-1.742 0.75,1.789 1.402,3.73 1.906,5.843 3.324,2.754 3.137,4.477 2.449,6.782 -0.351,1.183 -0.457,2.355 -0.457,2.367 -0.011,0.144 -0.101,0.273 -0.23,0.34 -0.141,0.066 -0.293,0.062 -0.422,-0.02 -0.105,-0.066 -2.578,-1.664 -2.742,-4.726 -0.109,-2.11 0.426,-4.024 0.574,-4.524 -0.32,-1.375 -0.715,-2.672 -1.152,-3.902 -0.293,2.953 -1.949,5.719 -2.039,5.863 -0.071,0.117 -0.196,0.192 -0.332,0.203 -0.133,0.008 -0.274,-0.047 -0.356,-0.156 -1.937,-2.355 -1.511,-5.5 1.09,-7.996 0.375,-0.356 0.348,-0.867 0.246,-1.266 -1.027,-2.136 -2.203,-4.027 -3.437,-5.687 0.363,1.051 0.617,2.172 0.629,3.222 0.031,2.547 -1.204,5.188 -1.254,5.297 -0.051,0.106 -0.145,0.188 -0.262,0.223 -0.113,0.035 -0.234,0.02 -0.336,-0.039 -3.965,-2.258 -2.664,-8.117 -1.828,-10.176 0.301,-0.742 -0.297,-2.121 -0.613,-2.719 -1.622,-1.593 -3.207,-2.855 -4.575,-3.832 1.012,2.121 1.032,4.739 1.036,5.801 v 0.184 c 0.011,0.984 0.671,3.304 0.679,3.328 0.047,0.152 0,0.316 -0.117,0.43 -0.117,0.109 -0.285,0.144 -0.434,0.089 -4.25,-1.476 -6.019,-6.121 -6.019,-8.277 0,-2.336 0.055,-4.512 0.062,-4.695 -1.371,-0.93 -2.859,-2.032 -4.461,-3.285 0.942,1.894 1.278,3.992 1.446,5.621 0.117,1.097 0.887,3.613 0.898,3.636 0.047,0.168 -0.008,0.348 -0.137,0.454 -0.132,0.113 -0.32,0.128 -0.472,0.05 -0.223,-0.117 -5.371,-2.886 -6.844,-6.379 -1.254,-2.976 -0.062,-6.632 0.219,-7.425 -1.445,-1.25 -2.969,-2.598 -4.551,-4.055 -0.687,-0.625 -1.371,-1.289 -2.035,-1.969 4.398,7.383 1.805,13.492 1.566,14.031 l 13.95,52.141 c 0.285,-0.031 0.519,-0.047 0.652,-0.027 0.894,0.093 1.551,0.519 1.808,1.168 0.25,0.632 0.067,1.382 -0.507,2.054 -0.059,0.071 -0.176,0.149 -0.336,0.235 3.554,4.324 4.133,6.648 3.914,6.972 0.054,-0.074 0.074,-0.164 0.074,-0.257 l 0.59,15.105 c 0.012,0.195 -0.117,0.371 -0.305,0.426 -0.187,0.054 -0.387,-0.028 -0.488,-0.196 -0.297,-0.515 -7.344,-12.546 -7.969,-13.953 -0.598,-1.332 0.098,-5.972 0.32,-7.328 -0.207,-0.023 -0.398,-0.054 -0.589,-0.109 -0.875,-0.238 -1.418,-0.836 -1.454,-1.594 -0.031,-0.777 0.497,-1.508 1.309,-1.805 0.133,-0.05 0.274,-0.093 0.418,-0.14 l -14.828,-55.188 c -0.004,-0.007 0,-0.011 0,-0.015 -1.16,-1.309 -2.336,-2.938 -2.805,-4.649 -0.57,-2.062 -0.418,-3.961 -0.019,-5.515 l -0.114,-0.43 c -0.937,0.91 -1.839,1.891 -1.839,2.406 0,0.594 0.566,5.637 1.808,12.453 1.231,6.719 0.922,10.278 0.395,14.239 -0.492,3.671 -0.051,6.222 0.746,10.855 l 0.097,0.566 c 0.77,4.52 1.782,13.157 1.368,18.407 -0.309,3.972 -1.188,5.273 -1.664,5.691 -0.032,0.914 -0.661,3.824 -7.27,4.809 -1.023,0.152 -1.977,0.152 -2.891,0.039 -2.05,0.031 -4.257,0.926 -5.976,2.484 -1.535,1.387 -2.399,3.078 -2.313,4.512 0.157,2.777 -0.465,4.414 -0.82,5.109 h 0.016 c 0.136,0.035 0.25,0.133 0.297,0.27 0.046,0.129 0.031,0.273 -0.047,0.386 -0.02,0.032 -2.051,3.032 -1.715,6.305 0.363,0.363 1.387,1.512 2.004,3.492 l 0.597,-0.504 -0.113,-0.543 c -0.035,-0.16 0.016,-0.324 0.149,-0.425 l 5.89,-4.645 c 0.098,-0.074 0.223,-0.109 0.348,-0.086 0.121,0.024 0.222,0.102 0.285,0.203 2.18,3.762 4.703,16.254 -4.621,24.336 24.332,-3.07 46.746,-14.812 63.242,-33.152 16.91,-18.82 26.223,-43.125 26.223,-68.441 0,-10.629 -1.602,-21.004 -4.719,-30.883 h -54.285 z m -1.989,-1.766 c 0.61,0.375 1.149,0.824 1.614,1.32 h 54.519 c -0.144,-0.437 -0.285,-0.878 -0.429,-1.32 z m -9.937,-1.898 c 0.559,0.812 1.254,1.425 2.125,1.699 1.914,-1.117 4.203,-1.313 6.383,-0.5 0.211,0.074 0.41,0.168 0.605,0.258 h 56.375 c -0.168,-0.485 -0.336,-0.973 -0.508,-1.457 z m 55.488,-10.91 v 5.343 c 0,1.227 0.977,2.219 2.168,2.219 1.199,0 2.168,-0.992 2.168,-2.219 v -5.343 z m -6.246,0 v 5.343 c 0,1.227 0.977,2.219 2.168,2.219 1.199,0 2.168,-0.992 2.168,-2.219 v -5.343 z m -6.234,0 v 5.343 c 0,1.227 0.965,2.219 2.16,2.219 1.199,0 2.168,-0.992 2.168,-2.219 v -5.343 z m -6.25,0 v 5.343 c 0,1.227 0.972,2.219 2.172,2.219 1.191,0 2.164,-0.992 2.164,-2.219 v -5.343 z m -6.242,0 v 5.343 c 0,1.227 0.976,2.219 2.168,2.219 1.195,0 2.168,-0.992 2.168,-2.219 v -5.343 z m -6.239,0 v 5.343 c 0,1.227 0.969,2.219 2.164,2.219 1.2,0 2.172,-0.992 2.172,-2.219 v -5.343 z m -6.246,0 v 5.343 c 0,1.227 0.973,2.219 2.172,2.219 1.191,0 2.164,-0.992 2.164,-2.219 v -5.343 z m -6.242,0 v 5.343 c 0,1.227 0.973,2.219 2.172,2.219 1.191,0 2.164,-0.992 2.164,-2.219 v -5.343 z m -6.246,0 v 5.343 c 0,1.227 0.98,2.219 2.172,2.219 1.195,0 2.164,-0.992 2.164,-2.219 v -5.343 z m -6.234,0 v 5.343 c 0,1.227 0.964,2.219 2.16,2.219 1.203,0 2.175,-0.992 2.175,-2.219 v -5.343 z m -1.344,-2.645 c 0.004,0.762 0.004,1.488 0.011,2.199 h 62.133 c -0.371,-0.742 -0.754,-1.472 -1.144,-2.199 z m 47.531,-12.816 v 6.746 c 0,1.687 1.371,3.058 3.055,3.058 1.687,0 3.054,-1.371 3.054,-3.058 v -5.707 c -0.25,-0.348 -0.503,-0.696 -0.757,-1.039 z m 1.035,-4.34 v 3.898 h 3.981 c -0.059,-0.09 -0.129,-0.18 -0.192,-0.265 -0.937,-1.235 -1.898,-2.442 -2.883,-3.633 z m -48.765,-4 c 0.011,1.16 0.023,2.351 0.039,3.558 h 49.269 c -1.015,-1.211 -2.051,-2.398 -3.125,-3.558 z m -6.387,-32.598 c -1.074,1.488 -2.395,3.027 -2.418,3.055 0.055,0.57 0.141,2.394 -0.758,3.414 -0.336,0.394 -0.789,0.629 -1.32,0.687 -1.512,1.012 -2.313,5.102 -2.879,9.793 0.066,-0.039 0.144,-0.07 0.226,-0.07 h 13.579 v -13.43 c -0.012,-0.058 -0.012,-0.113 0,-0.172 v -3.277 z m -32.969,-1.859 c -1.797,-0.512 -4.941,-0.645 -6.055,-0.305 -1.23,0.363 -2.199,0.129 -3.812,-0.273 l -1.035,-0.254 c -0.832,-0.192 -1.547,-0.082 -2.063,0.324 -0.418,0.332 -0.593,0.777 -0.613,1.008 0.172,0.14 0.91,0.254 1.359,0.324 0.59,0.094 1.196,0.18 1.633,0.383 0.902,0.402 4.172,2.168 4.906,2.57 1.036,-0.238 2.473,-0.844 4.836,-3.062 0.27,-0.258 0.555,-0.497 0.844,-0.715 z m 39.543,92.59 -1.07,-4.008 c -0.211,-0.289 -0.407,-0.582 -0.594,-0.852 l -0.246,1.219 1.297,4.941 c 0.195,-0.488 0.406,-0.929 0.613,-1.3 z m 1.023,-2.7 c 0.797,0.981 1.692,1.989 2.626,2.973 4.527,3.48 9.058,2.73 11.847,2.27 0.356,-0.059 0.699,-0.118 1.004,-0.157 1.414,-0.187 2.52,-0.195 3.27,-0.156 -2.223,-2.297 -6.786,-4.637 -16.204,-4.406 l -0.398,0.011 c -0.719,0.008 -1.477,-0.234 -2.145,-0.535 z m -0.746,0.442 0.332,1.25 c 0.168,-0.235 0.282,-0.379 0.305,-0.407 0.008,-0.015 0.024,-0.027 0.031,-0.039 -0.226,-0.269 -0.457,-0.535 -0.668,-0.804 z m 0.383,-3.844 -0.183,-1.012 -1.192,1.117 0.383,1.434 z m 1.61,-4.504 c -0.192,0.07 -0.489,0.231 -0.739,0.473 -0.226,0.215 -0.277,0.363 -0.277,0.402 0,0.047 -0.016,0.094 -0.027,0.133 0.16,0.504 0.14,1.027 -0.063,1.516 l 0.359,1.996 c 0.024,0.101 0,0.211 -0.058,0.304 l -1.137,1.758 c 0.473,0.285 1.117,0.629 1.781,0.832 l 0.969,-2.074 c -0.14,-0.82 -0.707,-4.238 -0.808,-5.34 z m -5.528,-11.168 c 0.356,-0.875 0.676,-1.531 0.867,-1.891 l -0.179,-0.167 c -0.258,0.714 -0.489,1.402 -0.688,2.058 z m -1.676,3.008 -4.882,-17.832 c 0.062,0.644 0.129,1.363 0.203,2.141 0.094,1.031 0.199,2.16 0.304,3.335 l 3.961,14.711 c 0.098,-0.726 0.231,-1.511 0.414,-2.355 z m 0.997,7.57 0.648,2.418 c 0.043,-0.047 0.086,-0.09 0.137,-0.14 0.218,-0.207 0.418,-0.403 0.613,-0.582 l -1.5,-5.582 c -0.113,1.253 -0.105,2.566 0.102,3.886 z m -1.59,-2.613 -3.414,-12.672 c 0.144,2.109 0.234,4.203 0.234,6.074 0,4.485 0.121,12.078 0.297,17.789 0.496,-1.586 1.312,-3.257 2.68,-4.16 0.011,-0.011 0.796,-0.508 1.648,-1.258 -0.508,-0.679 -1.461,-2.402 -1.445,-5.773 z m -13.961,34.391 c 0.058,0.058 0.125,0.117 0.191,0.171 1.199,1.067 3.067,2.727 3.906,5.125 -0.359,-3.585 -1.246,-12.007 -1.382,-13.304 -0.032,-0.301 -0.055,-0.68 -0.082,-1.129 -0.004,-0.129 -0.004,-0.262 -0.02,-0.402 -0.476,1.406 -1.219,2.746 -1.879,3.933 l -0.289,0.516 c -1.156,2.09 -0.594,4.566 -0.445,5.09 z m -0.305,-5.5 0.289,-0.524 c 1.246,-2.226 2.649,-4.742 2.16,-7.211 -0.242,-1.066 -0.617,-2.097 -1.211,-2.922 -0.199,-0.265 -0.422,-0.566 -0.664,-0.882 -1.586,-2.094 -3.8,-5.028 -4.027,-8.637 -1.613,5.633 -1.484,11.109 -1.203,14.222 0.336,3.598 2.492,8.168 3.875,10.219 -0.117,-1.16 -0.043,-2.777 0.781,-4.265 z m 4.547,-37.621 c -0.285,0.984 -1.152,2.562 -2.25,4.554 -1.637,2.981 -3.68,6.688 -4.59,9.953 -1.289,4.672 1.621,8.516 3.547,11.063 0.246,0.32 0.473,0.617 0.676,0.898 0.66,0.914 1.074,2.047 1.344,3.196 0,0.003 0,0.007 0,0.011 0.011,0.012 0.011,0.016 0.011,0.028 0.352,1.535 0.442,3.105 0.508,4.234 0.027,0.434 0.039,0.809 0.07,1.086 0.168,1.504 1.344,12.68 1.52,14.641 l 0.031,0.367 c 0.211,2.363 0.703,7.894 0.703,9.523 0,2.211 1.082,23.93 4.688,27.922 0.469,0.52 0.945,0.914 1.422,1.234 -2.571,-3.105 -2.446,-9.523 -2.387,-12.445 0,-0.34 0.012,-0.637 0.012,-0.863 0,-5.363 0.371,-11.641 1.101,-18.649 0.981,-9.367 0.176,-26.691 -0.125,-30.507 -0.336,-4.192 -0.586,-17.52 -0.586,-24.114 0,-4.32 -0.527,-9.898 -0.91,-13.972 -0.215,-2.309 -0.39,-4.121 -0.39,-4.938 0,-1.172 -1.079,-8.488 -2.024,-14.941 -0.801,-5.426 -1.555,-10.539 -1.648,-11.84 -0.028,-0.41 -0.063,-0.774 -0.098,-1.094 -0.375,3.965 -0.77,8.012 -1.445,11.02 -0.243,1.062 -0.539,2.187 -0.848,3.379 -1.047,3.964 -2.203,8.339 -1.652,11.964 0.015,0.032 0.019,0.063 0.027,0.094 v 0.02 c 0.152,0.957 0.43,1.855 0.863,2.679 0.012,0.02 0.028,0.051 0.028,0.075 l 2.097,6.957 c 0.969,3.191 1.063,5.8 0.309,8.468 z m 18.105,-27.696 v -3.898 h -3.003 c 0.011,1.285 0.027,2.59 0.043,3.898 z m 1.004,0.442 h -3.964 c 0.039,3.308 0.062,6.625 0.089,9.687 0.262,0.074 0.535,0.117 0.813,0.117 1.691,0 3.062,-1.371 3.062,-3.058 z m -0.554,-0.442 h 3.324 v -3.898 h -3.324 z m 3.754,0 h 4.101 v -3.898 h -4.101 z m 5.101,0.442 h -6.121 v 6.746 c 0,1.687 1.371,3.058 3.059,3.058 1.687,0 3.062,-1.371 3.062,-3.058 z m -0.555,-0.442 h 3.313 v -3.898 h -3.313 z m 3.754,0 h 4.106 v -3.898 h -4.106 z m 5.094,0.442 h -6.113 v 6.746 c 0,1.687 1.375,3.058 3.058,3.058 1.684,0 3.055,-1.371 3.055,-3.058 z m -0.547,-0.442 h 3.321 v -3.898 h -3.321 z m 3.762,0 h 4.101 v -3.898 h -4.101 z m 5.09,0.442 h -6.117 v 6.746 c 0,1.687 1.367,3.058 3.058,3.058 1.692,0 3.059,-1.371 3.059,-3.058 z m -0.547,-0.442 h 3.316 v -3.898 h -3.316 z m 3.758,0 h 4.105 v -3.898 h -4.105 z m 5.086,0.442 h -6.118 v 6.746 c 0,1.687 1.372,3.058 3.059,3.058 1.684,0 3.059,-1.371 3.059,-3.058 z m -0.539,-0.442 h 3.316 v -3.898 h -3.316 z m 3.757,0 h 4.098 v -3.898 h -4.098 z m 4.543,0 h 3.317 v -3.898 h -3.317 z m 0.532,0.442 h -6.11 v 6.746 c 0,1.687 1.371,3.058 3.055,3.058 1.687,0 3.055,-1.371 3.055,-3.058 z m -41.442,44.769 -0.277,0.578 h 9.398 c -0.011,-1.164 -0.273,-4.457 -3.015,-4.816 -0.2,-0.024 -0.356,-0.188 -0.364,-0.391 -0.023,-0.203 0.11,-0.386 0.309,-0.441 0.207,-0.063 5.098,-1.512 4.621,-6.117 -0.23,-2.274 -1.93,-4.321 -4.328,-5.215 -2.438,-0.914 -5.039,-0.391 -6.934,1.39 -1.425,1.332 -1.859,2.95 -1.234,4.543 0.66,1.668 2.422,3.032 3.926,3.032 1.418,0 3.254,-0.379 4.133,-1.438 0.449,-0.531 0.597,-1.168 0.461,-1.953 -0.274,-1.547 -1.36,-2.23 -3.305,-2.09 -0.07,0.004 -0.125,0.004 -0.172,0.004 -0.234,0 -0.422,-0.187 -0.422,-0.426 0,-0.234 0.188,-0.422 0.422,-0.422 0,0 0.008,0 0,0 0.02,0 0.078,-0.003 0.117,-0.007 3.024,-0.215 3.953,1.402 4.207,2.789 0.18,1.031 -0.035,1.925 -0.648,2.656 -1.074,1.277 -3.184,1.738 -4.793,1.738 -1.852,0 -3.926,-1.57 -4.719,-3.57 -0.449,-1.125 -0.848,-3.332 1.445,-5.477 0.176,-0.172 0.379,-0.336 0.578,-0.488 -3.988,-1.965 -4.132,-9.668 -4.132,-10.59 -0.032,-11.789 -0.352,-37.66 -0.407,-41.265 h -12.5 c -0.121,0 -0.222,-0.043 -0.3,-0.122 -0.125,1.059 -0.235,2.145 -0.344,3.235 0.394,0.664 0.598,2.336 0.695,3.726 0.09,1.266 0.836,6.372 1.641,11.77 0.789,5.367 1.597,10.863 1.898,13.562 0.047,0.047 0.078,0.098 0.09,0.161 l 5.52,20.183 c 0.347,-1.293 0.793,-2.707 1.371,-4.25 0.051,-0.133 0.16,-0.234 0.301,-0.265 0.136,-0.032 0.281,0.003 0.386,0.105 l 0.891,0.832 c 0.144,0.137 0.18,0.352 0.082,0.524 -0.02,0.046 -1.516,2.726 -2.238,6.332 l 1.894,7.062 c 0.594,-0.492 1.078,-0.785 1.508,-0.785 0.367,0 0.73,0.172 1.023,0.457 0.43,-0.57 1.243,-1.027 1.746,-1.027 0.223,0 0.364,0.082 0.446,0.152 0.14,0.113 0.211,0.289 0.211,0.488 0,0.465 0.508,3.594 0.851,5.586 0.012,0.082 0,0.172 -0.039,0.25 z m 0.672,19.621 c 0.649,-1.82 2.203,-8.035 -3.32,-15.035 -0.774,1.176 -2.633,4.547 -1.524,8.516 0.75,2.746 3.563,5.367 4.844,6.519 z m 12.785,53.332 c 0.293,-0.078 0.598,-0.14 0.875,-0.191 l 0.016,-0.004 -13.988,-52.281 -0.051,-0.043 c -0.32,-0.278 -0.77,-0.684 -1.281,-1.184 l 14.425,53.703 z m 3.051,2.305 c 0.363,-0.43 0.488,-0.844 0.355,-1.176 -0.132,-0.336 -0.539,-0.574 -1.101,-0.633 -0.164,-0.019 -0.645,0.036 -1.246,0.145 l -1.266,0.301 h -0.031 c -0.246,0.066 -0.484,0.148 -0.707,0.222 -0.547,0.203 -0.77,0.637 -0.754,0.969 0.016,0.379 0.32,0.672 0.832,0.813 1.426,0.386 3.637,-0.411 3.918,-0.641 z m 0.582,10.312 c -0.227,0.055 -0.457,-0.085 -0.516,-0.312 -0.285,-1.188 -1.871,-7.188 -2.207,-8.461 -0.183,0.023 -0.375,0.047 -0.554,0.051 -0.383,2.301 -0.809,6.051 -0.407,6.965 0.481,1.078 5.118,9.046 7.071,12.39 l -0.531,-13.394 c 0,0.011 -0.266,-1.989 -3.95,-6.399 -0.234,0.082 -0.511,0.164 -0.793,0.231 0.371,1.402 1.918,7.238 2.203,8.414 0.059,0.23 -0.089,0.461 -0.316,0.515 z M 689.34,381.57 c 0.535,-4.015 0.816,-7.367 -0.387,-13.976 -1.203,-6.582 -1.824,-11.817 -1.824,-12.602 0,-0.758 0.648,-1.644 2.445,-3.347 l -0.941,-3.583 c -0.012,-0.011 -0.035,-0.019 -0.055,-0.035 l -0.34,-0.324 c -0.105,-0.101 -0.152,-0.254 -0.129,-0.394 l 0.52,-2.551 c 0.019,-0.094 0.062,-0.168 0.129,-0.231 l 2.203,-2.066 c 0.738,-0.691 0.566,-1.395 0.469,-1.664 -0.157,-0.371 -0.45,-0.649 -0.719,-0.649 -0.426,0 -1.555,1.11 -2.227,1.77 -0.222,0.227 -0.437,0.43 -0.64,0.617 -1.02,0.957 -2.028,1.606 -2.071,1.629 -2.574,1.699 -2.976,6.953 -3.003,7.246 0.046,0.988 0.101,1.828 0.148,2.453 0.305,3.836 1.117,21.242 0.129,30.668 -0.727,6.981 -1.098,13.223 -1.098,18.555 0,0.238 -0.004,0.535 -0.015,0.883 -0.055,3.136 -0.204,10.484 3.074,12.695 1.269,0.859 2.996,0.84 5.121,-0.066 -0.004,0.004 1.066,-0.668 1.414,-5.153 0.398,-5.175 -0.594,-13.718 -1.359,-18.199 l -0.094,-0.566 c -0.789,-4.559 -1.262,-7.309 -0.75,-11.11 z m -49.606,-7.375 c 1.262,1.192 12,15.567 14.786,20.707 2.222,4.106 6.82,10.723 10.511,16.047 l 2.375,3.43 c 3.192,4.656 6.442,6.609 7.067,6.953 0.656,-0.102 1.312,-0.328 2.023,-0.656 -3.234,-1.828 -5.621,-4.981 -7.305,-7.207 -0.48,-0.633 -0.894,-1.188 -1.273,-1.637 -2.637,-3.121 -12.395,-19.644 -13.887,-22.359 -1.281,-2.336 -6.867,-13.883 -9.25,-18.813 l -0.801,-1.637 -0.605,-1.293 c -1.164,-2.484 -4.273,-9.085 -5.578,-9.085 -1.356,0 -1.684,0.734 -2.371,5.257 -0.676,4.512 3.285,9.344 4.308,10.293 z m 5.196,15.067 0.613,0.769 c 0.769,0.973 3.141,3.414 5.441,5.774 l 2.668,2.754 c 1.387,1.445 4.45,4.777 7.036,7.589 -2.715,-3.972 -5.376,-7.996 -6.922,-10.843 -2.614,-4.828 -12.293,-17.864 -14.348,-20.196 -0.684,3.082 0.695,6.961 1.59,8.688 0.832,1.621 2.695,3.933 3.922,5.465 z m 3.543,23.894 c 1.746,0.196 3.558,0.395 5.547,0.731 1.859,0.308 3.644,0.765 5.402,1.363 -2.824,-1.461 -6.145,-2.793 -8.734,-3.289 -2.555,-0.496 -3.887,-0.668 -5.579,-0.883 -1.089,-0.14 -2.336,-0.297 -4.132,-0.578 -0.055,-0.004 -0.102,-0.02 -0.157,-0.031 0.242,0.609 1,1.793 3.266,2.136 1.523,0.235 2.98,0.395 4.387,0.551 z m -0.77,39.758 c 0.961,0 1.742,-0.574 2.211,-1.617 0.621,-1.387 1.879,-2.582 3.953,-3.762 1.113,-0.629 3.809,-1.922 6.723,-3.215 -0.891,-0.422 -1.512,-1.297 -1.848,-2.011 -1.793,0.589 -7.711,2.031 -13.133,3.3 h -0.004 c -4.816,1.121 -9.222,2.106 -9.964,2.223 -0.219,0.031 -0.371,0.07 -0.473,0.102 l 6.082,2.855 c 2.109,0.824 5.719,2.125 6.453,2.125 z m 16.637,-9.266 c -0.117,0.071 -0.219,0.114 -0.317,0.129 -3.875,1.614 -8.289,3.68 -9.734,4.496 -1.914,1.09 -3.059,2.157 -3.601,3.375 -0.602,1.344 -1.696,2.118 -2.985,2.118 -0.769,0 -3.351,-0.899 -5.105,-1.555 1.5,0.719 3.808,1.844 6.121,3.051 l 2.156,1.16 c 2.297,1.242 4.277,2.308 5.535,2.555 3.602,0.683 5.981,0.175 9.438,-2.02 3.015,-1.906 5.968,-5.602 5.789,-9.547 -0.153,-3.254 -1.684,-5.113 -2.168,-5.625 -1.164,0.301 -3.055,1.008 -5.129,1.863 z m 3.012,-9.64 c -0.09,0.562 -0.176,1.101 -0.262,1.605 v 0.004 c -0.008,0.016 -0.008,0.028 -0.008,0.039 -0.062,0.391 -0.133,0.758 -0.199,1.11 v 0.015 c -0.008,0.012 -0.016,0.031 -0.016,0.043 -0.176,0.906 -0.347,1.696 -0.519,2.383 v 0.008 c -0.004,0.012 -0.012,0.019 -0.012,0.031 -0.359,1.426 -0.711,2.41 -1.039,3.09 1.527,-0.602 2.894,-1.094 3.848,-1.348 -0.204,-2.711 0.972,-5.125 1.562,-6.144 l -3.355,-0.84 z m 1.031,-6.543 c -2.434,2.437 -1.418,5.004 -1.102,5.648 l 1.512,0.375 c 0.019,-0.011 0.031,-0.019 0.047,-0.027 0.269,-0.113 0.676,-0.941 0.648,-1.824 -0.015,-0.344 -0.027,-0.614 -0.047,-0.879 -0.054,-0.692 -0.097,-1.289 0.071,-2.762 0.269,-2.391 2.363,-4.601 3.644,-5.746 -0.676,-0.043 -1.371,-0.188 -2.113,-0.441 0.039,2.148 -1.508,4.507 -2.66,5.656 z m -5.391,11.336 c 1.438,-0.43 2.242,-1.067 2.668,-1.551 -0.769,0.383 -1.93,0.754 -3.687,1.156 -2.731,0.633 -4.211,2.438 -4.875,3.504 0.75,-0.207 1.316,-0.375 1.605,-0.488 0.309,-0.414 1.496,-1.785 4.289,-2.621 z m -1.191,4.918 c 0.07,0 0.148,-0.016 0.222,-0.024 0.645,-0.277 1.286,-0.547 1.918,-0.808 0.18,-0.149 0.621,-0.672 1.184,-2.449 -0.129,0.074 -0.254,0.152 -0.395,0.238 -0.585,0.359 -1.257,0.777 -1.726,1.234 -0.621,0.625 -0.996,1.34 -1.203,1.809 z m 0.609,-2.414 c 0.531,-0.528 1.25,-0.969 1.879,-1.356 0.465,-0.277 1.164,-0.711 1.219,-0.902 v 0.004 c 0,-0.008 0.004,-0.012 0.004,-0.012 0.054,-0.203 0.101,-0.414 0.156,-0.633 -0.563,0.446 -1.344,0.883 -2.434,1.211 -2.343,0.699 -3.429,1.805 -3.773,2.215 0.184,0.41 0.668,1.34 1.484,1.723 0.207,-0.539 0.664,-1.45 1.465,-2.25 z m 1.422,-4.532 c 0.055,0.067 0.113,0.141 0.16,0.215 1.957,-0.625 2.18,-1.101 2.242,-1.429 0.106,-0.614 0.215,-1.286 0.321,-2.008 -0.34,-0.696 -1.637,-3.824 1.222,-6.692 1.332,-1.332 2.61,-3.652 2.387,-5.379 -0.406,-0.171 -0.828,-0.375 -1.277,-0.601 0.019,1.504 -0.946,3.141 -2.918,4.879 -3.313,2.933 -2.356,5.937 -1.778,7.734 0.098,0.297 0.18,0.563 0.231,0.785 0.258,1.172 -0.246,2.055 -0.59,2.496 z m 10.188,-12.871 c 1.265,-1.144 2.781,-1.964 4.328,-2.382 -0.348,-0.125 -0.688,-0.262 -1.008,-0.422 -0.043,0.09 -0.106,0.172 -0.203,0.218 v -0.004 c -0.918,0.461 -1.754,0.747 -2.578,0.876 -0.59,0.453 -3.887,3.136 -4.2,5.906 -0.16,1.394 -0.125,1.926 -0.07,2.601 0.023,0.262 0.039,0.559 0.055,0.918 0.019,0.715 -0.188,1.567 -0.586,2.117 l 0.851,0.215 c 0.227,-0.386 0.981,-1.918 0.813,-4.843 -0.098,-1.719 0.844,-3.61 2.598,-5.2 z m -16.965,3.266 c -0.176,0.484 -0.598,0.77 -1.059,0.949 1.082,0.449 2.078,0.906 2.742,1.207 0.282,0.133 0.504,0.231 0.61,0.278 0.218,0.089 0.324,0.343 0.226,0.558 -0.086,0.219 -0.34,0.32 -0.554,0.227 -0.118,-0.047 -0.34,-0.149 -0.641,-0.285 -1.563,-0.715 -5.707,-2.614 -7.332,-2.614 -0.59,0 -1.039,0.188 -1.34,0.563 -0.383,0.469 -0.41,1.078 -0.387,1.199 0.149,0.508 0.094,1.102 -0.129,1.594 -0.211,0.484 -0.691,0.644 -1.074,0.672 -0.015,0.156 0.059,0.375 0.129,0.543 0.18,0.058 0.508,0.148 0.906,0.175 0.227,0.02 0.41,0.223 0.395,0.457 -0.016,0.235 -0.223,0.411 -0.465,0.395 -0.551,-0.043 -1.004,-0.18 -1.195,-0.246 -0.375,0.031 -0.5,0.371 -0.539,0.594 0.394,0.418 0.445,0.964 0.386,1.414 h 0.141 c 0.133,0 0.547,0.07 0.816,0.355 0.164,0.18 0.247,0.402 0.235,0.652 -0.016,0.235 -0.223,0.411 -0.453,0.399 -0.239,-0.02 -0.414,-0.219 -0.399,-0.453 v -0.016 c -0.019,-0.027 -0.14,-0.078 -0.215,-0.086 h -0.718 c -0.239,0 -0.465,-0.074 -0.696,-0.156 -0.293,-0.105 -0.617,-0.215 -1.043,-0.215 -0.281,0 -0.363,0.102 -0.386,0.141 -0.106,0.121 -0.141,0.363 -0.094,0.613 0.039,0.172 0.355,1.156 0.656,2.113 0.86,2.688 1.07,3.395 1.07,3.625 0,0.297 -0.328,1.817 -0.55,2.801 3.609,-0.844 7.355,-1.75 9.867,-2.406 0.312,-0.684 1.492,-2.879 4.176,-4.086 0.004,-0.012 0.004,-0.02 0.004,-0.031 0.039,-0.067 0.339,-0.664 0.953,-0.828 0.238,-0.063 0.625,-0.071 1.07,0.214 0.348,-0.082 0.664,-0.16 0.949,-0.238 -0.914,-1.101 -1.941,-0.93 -1.988,-0.922 -0.223,0.047 -0.453,-0.101 -0.496,-0.332 -0.055,-0.226 0.097,-0.453 0.324,-0.5 0.063,-0.015 1.164,-0.226 2.277,0.664 0.231,-0.332 0.528,-0.922 0.352,-1.699 -0.043,-0.184 -0.121,-0.426 -0.211,-0.711 -0.594,-1.859 -1.703,-5.324 2.031,-8.625 2.008,-1.781 2.871,-3.371 2.563,-4.723 -0.547,-0.304 -1.133,-0.64 -1.754,-1.015 -4.078,-2.445 -7.996,-3.926 -12.336,-4.66 -1.969,-0.332 -3.77,-0.528 -5.496,-0.719 -1.356,-0.149 -2.754,-0.305 -4.211,-0.524 1.629,2.543 3.371,4.168 5.203,4.832 0.875,0.313 2.285,0.36 3.527,0.395 0.989,0.027 1.84,0.051 2.375,0.203 1.192,0.336 1.911,0.883 2.34,1.762 0.442,0.906 -0.238,5.582 -0.562,6.496 z m -16.25,-28.324 c 1.066,1 6.015,7.437 6.226,7.711 0.145,0.191 0.11,0.457 -0.078,0.597 -0.187,0.149 -0.453,0.11 -0.598,-0.074 -0.043,-0.062 -4.492,-5.848 -5.894,-7.367 -1.984,1.359 -3.652,1.441 -4.52,1.348 0.325,1.929 1.637,8.058 5.164,8.597 1.79,0.282 3.028,0.434 4.114,0.574 1.699,0.219 3.051,0.391 5.633,0.891 4.453,0.863 11.031,4.129 13.75,6.375 0.679,0.363 1.367,0.742 2.058,1.156 2.715,1.629 4.578,2.543 6.281,2.723 -1.418,-0.992 -3.832,-3 -6.238,-6.516 l -2.371,-3.425 c -0.031,-0.043 -0.062,-0.09 -0.086,-0.133 -0.391,-0.422 -8.656,-9.485 -11.211,-12.156 l -2.664,-2.743 c -2.312,-2.379 -4.703,-4.836 -5.492,-5.84 l -0.613,-0.765 c -0.719,-0.899 -1.661,-2.067 -2.493,-3.219 -2.179,3.422 -2.57,10.77 -0.968,12.266 z M 613.91,429.84 c -0.008,0.629 -0.019,1.18 0,1.699 0.051,-0.301 0.102,-0.562 0.164,-0.758 l 0.098,-0.301 c 0.285,-0.867 0.816,-2.488 0.59,-4.144 -0.032,-0.234 0.133,-0.449 0.363,-0.481 0.23,-0.035 0.449,0.129 0.484,0.364 0.176,1.285 -0.047,2.523 -0.297,3.465 -0.054,0.289 -0.605,3.746 0.59,6.23 0.676,1.406 0.969,2.559 0.891,3.524 0.707,-1.129 1.266,-3.067 0.605,-6.297 -0.039,-0.203 0.071,-0.403 0.262,-0.481 0.188,-0.078 0.399,-0.012 0.516,0.164 0.043,0.059 0.125,0.172 0.23,0.289 -0.273,-0.578 -0.484,-1.386 -0.398,-2.453 0.07,-0.957 0.332,-1.875 0.609,-2.851 0.426,-1.508 0.863,-3.067 0.707,-5.016 -0.172,-2.074 -0.918,-3.008 -1.793,-4.09 l -0.136,-0.172 -3.079,0.063 c -0.222,0.289 -1.703,2.273 -1.5,4.426 0.114,1.113 0.344,1.804 0.567,2.472 0.273,0.82 0.543,1.606 0.543,3.02 0,0.476 -0.008,0.906 -0.016,1.328 z m -22.937,-10.543 c 0.105,-0.703 0.523,-1.317 1.242,-1.817 0.656,-0.449 1.523,-0.671 2.91,-0.734 h 0.008 l 7.023,-0.152 c 0.235,-0.004 0.434,0.179 0.438,0.414 0.004,0.234 -0.18,0.433 -0.418,0.437 l -4.465,0.098 c -0.195,0.207 -0.207,0.398 -0.172,0.535 l 23.32,-0.473 c 0,-0.078 -0.004,-0.164 -0.05,-0.257 -0.141,-0.336 -0.629,-0.637 -1.364,-0.844 -0.164,-0.051 -0.285,-0.195 -0.304,-0.363 -0.008,-0.09 -0.282,-2.207 -2.27,-2.207 -0.098,0 -0.191,-0.039 -0.258,-0.094 -0.726,0.258 -1.711,0.418 -3.062,0.379 -1.961,-0.051 -4.067,-0.477 -4.446,-0.559 -0.589,0.043 -5.277,0.422 -6.328,0.688 -0.972,0.246 -1.586,-0.016 -1.89,-0.219 l -0.977,0.258 c -1.09,0.183 -1.68,-0.102 -1.969,-0.344 -1.031,0.32 -1.804,0.309 -2.3,-0.039 -0.094,-0.063 -0.168,-0.141 -0.231,-0.223 -3.18,0.438 -4.98,1.364 -5.992,3.094 -1.211,2.055 -0.609,4.508 1.398,5.699 1.164,0.692 2.5,0.754 3.575,0.168 0.425,-0.234 0.785,-0.551 1.07,-0.945 -0.438,0.324 -0.875,0.469 -1.234,0.523 -1.172,0.176 -2.293,-0.496 -2.707,-1.019 -0.348,-0.442 -0.676,-1.196 -0.547,-2.004 z m 48.839,-30.305 -1.332,-1.515 c -2.168,-2.493 -4.21,-4.848 -5.843,-4.848 -2.293,0 -7.086,4.777 -8.68,7.656 -0.004,0.012 -0.019,0.031 -0.027,0.047 -0.434,0.586 -1.41,2.469 -2.532,4.652 -3.543,6.856 -6.898,13.098 -8.992,14.075 -1.23,0.57 -6.34,1.003 -7.121,1.066 -3.851,1.223 -8.101,2.672 -9.168,3.168 0.004,0.004 0.004,0.008 0.016,0.012 0.105,0.078 0.547,0.289 1.785,-0.157 0.199,-0.074 0.418,0.016 0.52,0.196 0,0 0.277,0.383 1.292,0.211 -0.035,0.011 1.145,-0.305 1.145,-0.305 0.156,-0.039 0.324,0.012 0.437,0.133 0,0.012 0.364,0.367 1.254,0.14 1.184,-0.3 6.313,-0.703 6.532,-0.718 0.043,-0.004 0.082,0 0.125,0.011 0.019,0.004 2.308,0.5 4.355,0.555 3.836,0.102 4.168,-1.418 4.328,-2.148 l 0.024,-0.121 c 0.246,-1.063 1.289,-2.485 1.332,-2.54 0.828,-1.218 3.093,-4.089 8.828,-9.554 1.601,-1.528 2.82,-2.91 3.754,-4.106 0.027,-0.043 0.058,-0.086 0.097,-0.121 2.125,-2.746 2.672,-4.437 2.688,-4.476 0.066,-0.227 0.301,-0.352 0.523,-0.289 0.227,0.074 0.36,0.308 0.293,0.535 -0.035,0.101 -0.578,1.824 -2.707,4.609 1.168,2.278 2.59,4.457 2.95,5 0.46,0.11 2.093,0.313 4.203,-1.09 -1.246,-1.855 -1.157,-6.48 -0.079,-10.078 z m 0.352,-93.34 c 0.246,-1.425 0.434,-2.73 0.477,-3.558 h -31.567 v 3.558 z m -31.09,4.34 h 2.781 v -3.898 h -2.781 z m 24.367,0 h 3.121 v -3.898 h -3.121 z m -8.3,0 h 3.312 v -3.898 h -3.312 z m -8.301,0 h 3.316 v -3.898 h -3.316 z m -4.539,0 h 4.094 v -3.898 h -4.094 z m -1.016,0.442 v 6.746 c 0,1.687 1.367,3.058 3.051,3.058 1.691,0 3.062,-1.371 3.062,-3.058 v -6.746 z m 9.317,-0.442 h 4.093 v -3.898 h -4.093 z m -1.02,0.442 v 6.746 c 0,1.687 1.371,3.058 3.055,3.058 1.691,0 3.058,-1.371 3.058,-3.058 v -6.746 z m 9.32,-0.442 H 633 v -3.898 h -4.098 z m -1.019,0.442 v 6.746 c 0,1.687 1.367,3.058 3.055,3.058 1.683,0 3.058,-1.371 3.058,-3.058 v -6.746 z m 11.453,-0.442 c 0.238,-1.168 0.512,-2.562 0.75,-3.898 h -3.074 v 3.898 z m -3.352,0.442 v 6.746 c 0,0.98 0.469,1.882 1.243,2.449 0.464,-2.203 0.957,-4.41 1.296,-5.899 l 0.348,-1.546 c 0.09,-0.403 0.223,-1.016 0.375,-1.75 z m 0.625,12.371 c 0.153,-0.856 0.332,-1.77 0.52,-2.7 -0.984,-0.644 -1.582,-1.73 -1.582,-2.925 v -6.746 h -1.106 v 6.746 c 0,1.929 -1.57,3.5 -3.503,3.5 -1.926,0 -3.497,-1.571 -3.497,-3.5 v -6.746 h -1.296 v 6.746 c 0,1.929 -1.571,3.5 -3.508,3.5 -1.926,0 -3.5,-1.571 -3.5,-3.5 v -6.746 h -1.297 v 6.746 c 0,1.929 -1.57,3.5 -3.504,3.5 -1.922,0 -3.496,-1.571 -3.496,-3.5 v -6.746 h -1.766 v 12.371 z m -0.406,2.644 c 0.043,-0.336 0.082,-0.676 0.133,-1.011 0.055,-0.376 0.117,-0.774 0.195,-1.188 h -27.457 v 2.199 z m -20.48,5.789 v -5.343 h -4.34 v 5.343 c 0,1.227 0.976,2.219 2.172,2.219 1.191,0 2.168,-0.992 2.168,-2.219 z m 6.242,0 v -5.343 h -4.336 v 5.343 c 0,1.227 0.969,2.219 2.168,2.219 1.195,0 2.168,-0.992 2.168,-2.219 z m 6.238,0 v -5.343 h -4.332 v 5.343 c 0,1.227 0.973,2.219 2.168,2.219 1.195,0 2.164,-0.992 2.164,-2.219 z m 6.246,0 v -5.343 h -4.34 v 5.343 c 0,1.227 0.981,2.219 2.172,2.219 1.192,0 2.168,-0.992 2.168,-2.219 z m 1.699,-5.343 h -1.257 v 5.343 c 0,1.469 -1.172,2.66 -2.61,2.66 -1.437,0 -2.613,-1.191 -2.613,-2.66 v -5.343 h -1.016 v 5.343 c 0,1.469 -1.175,2.66 -2.613,2.66 -1.437,0 -2.613,-1.191 -2.613,-2.66 v -5.343 h -1.02 v 5.343 c 0,1.469 -1.172,2.66 -2.609,2.66 -1.445,0 -2.613,-1.191 -2.613,-2.66 v -5.343 h -1.024 v 5.343 c 0,1.469 -1.172,2.66 -2.605,2.66 -1.446,0 -2.617,-1.191 -2.617,-2.66 v -5.343 h -1.864 v 11.562 l 1.985,-1.066 0.046,-0.028 h 24.754 c 0.032,-0.672 0.051,-1.289 0.051,-1.801 l -0.012,-1.417 c -0.015,-2.063 -0.039,-4.551 0.25,-7.25 z m 3.555,-13.524 -0.344,1.551 c -0.601,2.629 -1.711,7.527 -2.175,10.64 -0.489,3.196 -0.457,6.176 -0.434,8.567 l 0.012,1.433 c 0,1.598 -0.176,4.184 -0.317,6.258 -0.09,1.356 -0.172,2.52 -0.172,2.985 0,1.168 -0.148,2.246 -0.16,2.347 -0.254,2.004 -0.289,2.434 -0.289,3.946 0,1.683 0.508,5.773 0.512,5.816 0.027,0.234 -0.133,0.445 -0.371,0.469 h -0.027 c -0.032,0.015 -0.051,0.027 -0.09,0.035 -0.227,0.035 -0.403,0.164 -0.543,0.394 -1.117,1.821 0.507,8.239 1.41,11.176 0.301,-0.136 0.656,-0.199 1.086,-0.199 1.543,0 3.492,3.516 6.344,9.582 l 0.609,1.277 0.789,1.637 c 2.383,4.93 7.965,16.457 9.23,18.774 1.442,2.617 11.254,19.211 13.793,22.222 0.395,0.473 0.821,1.028 1.309,1.676 2.355,3.113 5.742,7.586 10.719,8.238 0.406,0 0.812,0.02 1.215,0.086 0.488,0 1,-0.031 1.527,-0.113 4.879,-0.727 6.125,-2.52 6.441,-3.48 -1.554,0.585 -5.269,1.464 -8.359,-1.95 -4.078,-4.519 -4.902,-28.269 -4.902,-28.5 0,-1.375 -0.383,-5.843 -0.614,-8.406 -0.972,3.496 -7.074,8.273 -8.461,9.328 0.153,0.934 0.934,4.606 1.434,6.934 3.098,12.968 7.129,19.539 7.168,19.601 0.129,0.203 0.066,0.465 -0.133,0.59 -0.203,0.125 -0.469,0.063 -0.586,-0.137 -0.043,-0.066 -4.144,-6.738 -7.277,-19.867 -0.348,-1.601 -1.481,-6.859 -1.481,-7.312 0,-0.133 0.063,-0.262 0.168,-0.344 0.5,-0.371 1.157,-0.887 1.883,-1.5 -0.402,-2.051 -3.273,-16.66 -4.543,-21.02 -1.414,-4.839 -4.344,-12.226 -5.551,-14.644 -1.273,-2.555 -5.906,-10.891 -7.847,-13.777 -1.469,-2.18 -5.942,-8.832 -5.563,-18.7 v 0.004 c 0.008,-0.234 0.207,-0.418 0.442,-0.41 0.234,0.012 0.414,0.207 0.406,0.442 -0.359,9.585 3.992,16.062 5.426,18.191 1.957,2.914 6.613,11.297 7.894,13.871 1.227,2.445 4.188,9.898 5.614,14.785 1.203,4.145 3.835,17.399 4.464,20.625 2.77,-2.402 6.082,-5.801 5.817,-7.765 -0.391,-2.918 -2.563,-4.832 -4,-6.11 -0.211,-0.187 -0.41,-0.363 -0.582,-0.527 -1.383,-1.293 -4.449,-7.242 -4.848,-11.66 -0.359,-3.965 -0.48,-11.672 2.809,-18.793 1.043,-2.996 2.797,-6.176 4.238,-8.801 1.035,-1.875 1.926,-3.492 2.18,-4.383 0.476,-1.68 0.871,-4.109 -0.297,-7.988 l -2.086,-6.926 c -0.485,-0.93 -0.785,-1.937 -0.953,-3 -1.25,-5.922 -4.196,-16.105 -6.879,-18.625 -1.961,-1.832 -3.766,-1.965 -6.27,-2.148 -0.812,-0.055 -1.746,-0.129 -2.742,-0.262 -3.793,-0.52 -5.558,-2.68 -6.976,-4.418 l -0.465,-0.563 c -1.121,-1.343 -2.211,-4.375 -3.004,-6.597 -0.321,-0.895 -0.602,-1.66 -0.739,-1.926 -0.179,-0.324 -0.777,-0.738 -1.437,-0.676 -0.699,0.067 -1.25,0.656 -1.582,1.696 -0.945,2.933 -0.77,6.468 -0.535,7.726 0.265,1.445 0.492,5.988 0.492,8.07 0,2.118 -1.375,8.61 -1.797,10.555 z m 34.692,-46.953 h -4.016 c 1.129,0.453 2.262,1.062 3.344,1.875 0.089,-0.496 0.277,-1.164 0.672,-1.875 z m -0.083,3.473 c -4.214,-3.95 -9.765,-3.942 -12.132,-3.938 h -0.16 c -2.415,0 -7.403,0.84 -10.79,4.024 -3.226,3.023 -4.878,3.25 -6.089,3.414 -0.137,0.015 -0.27,0.039 -0.395,0.058 -0.09,0.012 -0.105,0.039 -0.121,0.055 -0.152,0.226 0.016,1.043 0.148,1.691 0.137,0.629 0.282,1.348 0.282,2.004 0,1.555 -0.364,6.469 -0.453,7.676 0.312,0.195 0.558,0.453 0.707,0.715 0.171,0.324 0.437,1.047 0.789,2.051 0.734,2.039 1.836,5.113 2.863,6.332 l 0.469,0.57 c 1.394,1.711 2.972,3.645 6.425,4.117 0.977,0.133 1.848,0.195 2.692,0.258 2.578,0.187 4.617,0.336 6.789,2.379 2.32,2.168 4.715,9.289 6.234,15.234 0.262,-2.738 1.02,-5.621 1.723,-8.312 0.309,-1.184 0.609,-2.305 0.844,-3.356 0.699,-3.093 1.097,-7.343 1.484,-11.453 0.641,-6.859 1.258,-13.375 3.191,-15.816 -1.824,-0.324 -3.531,-1.692 -5.199,-4.16 -0.136,-0.196 -0.086,-0.457 0.11,-0.586 0.191,-0.137 0.461,-0.082 0.593,0.109 1.762,2.598 3.512,3.859 5.356,3.859 0.414,0 0.738,-0.136 0.984,-0.41 0.52,-0.601 0.594,-1.746 0.563,-2.468 -1.539,0.234 -2.699,-0.106 -6.907,-4.047 z m 10.45,-2.45 c -0.008,-0.019 -0.024,-0.046 -0.035,-0.07 -0.188,-0.086 -0.297,-0.293 -0.243,-0.5 0.086,-0.301 0.149,-0.707 -0.031,-0.953 -0.156,-0.234 -0.48,-0.25 -0.484,-0.25 -0.125,0.008 -0.239,-0.051 -0.324,-0.148 -0.086,-0.102 -0.106,-0.231 -0.079,-0.368 0.09,-0.41 0.055,-0.722 -0.093,-0.918 -0.075,-0.093 -0.161,-0.152 -0.25,-0.195 -0.067,0.195 -0.118,0.316 -0.125,0.32 -0.098,0.223 -0.344,0.321 -0.563,0.231 -0.215,-0.102 -0.316,-0.352 -0.223,-0.563 0,-0.004 0.102,-0.23 0.208,-0.543 -0.012,-0.32 -0.098,-0.558 -0.282,-0.714 -0.238,-0.188 -0.578,-0.243 -0.859,-0.25 -0.027,0.8 -0.473,1.519 -0.488,1.554 -0.125,0.199 -0.391,0.262 -0.59,0.141 -0.196,-0.125 -0.262,-0.391 -0.133,-0.59 0.133,-0.219 0.453,-0.891 0.332,-1.41 v -0.004 c 0,-0.027 -0.004,-0.047 -0.012,-0.066 -0.004,-0.094 -0.086,-0.567 -0.91,-0.567 -1.773,0 -2.336,1.766 -2.34,1.965 0,0.484 -0.406,1.266 -0.488,1.414 -0.027,0.055 -0.062,0.102 -0.109,0.137 -1.848,1.445 -2.102,3.258 -2.141,3.828 0.133,0.109 0.266,0.234 0.395,0.351 4.343,4.075 5.121,4.036 6.484,3.77 0.012,-0.016 0.012,-0.031 0.023,-0.047 0.016,-0.016 1.43,-1.656 2.496,-3.176 1.227,-1.734 0.856,-2.394 0.856,-2.394 l 0.012,0.015 z m 0.261,2.2 h 6.11 l 2.953,-3.223 h -8.668 c -0.012,0.141 -0.023,0.285 -0.051,0.441 0.024,0.02 0.051,0.032 0.067,0.055 0.117,0.152 0.613,0.953 -0.411,2.727 z m 6.293,18.586 h -0.644 c 0.019,1.589 0.098,7.398 0.176,14.425 h 45.773 c -12.215,-13.105 -27.816,-22.953 -44.875,-28.203 v 13.356 c 0,0.234 -0.187,0.422 -0.43,0.422 z m 59.043,32.976 c -1.089,-1.891 -2.261,-3.754 -3.48,-5.586 v 2.563 c 0,1.687 1.367,3.058 3.059,3.058 0.14,0 0.281,-0.015 0.421,-0.035 z m -0.421,0.477 c -1.934,0 -3.504,-1.571 -3.504,-3.5 v -3.215 c -0.426,-0.629 -0.856,-1.254 -1.297,-1.867 v 5.082 c 0,1.929 -1.571,3.5 -3.5,3.5 -1.93,0 -3.5,-1.571 -3.5,-3.5 v -6.746 h -1.305 v 6.746 c 0,1.929 -1.562,3.5 -3.496,3.5 -1.934,0 -3.5,-1.571 -3.5,-3.5 v -6.746 h -1.293 v 6.746 c 0,1.929 -1.574,3.5 -3.504,3.5 -1.93,0 -3.504,-1.571 -3.504,-3.5 v -6.746 h -1.293 v 6.746 c 0,1.929 -1.57,3.5 -3.5,3.5 -1.933,0 -3.504,-1.571 -3.504,-3.5 v -6.746 h -1.3 v 6.746 c 0,1.929 -1.571,3.5 -3.497,3.5 -1.933,0 -3.5,-1.571 -3.5,-3.5 v -6.746 h -1.3 v 6.746 c 0,1.929 -1.575,3.5 -3.5,3.5 -1.934,0 -3.504,-1.571 -3.504,-3.5 v -6.746 h -1.293 v 6.746 c 0,1.929 -1.567,3.5 -3.504,3.5 -0.274,0 -0.547,-0.035 -0.813,-0.098 0.004,0.762 0.012,1.5 0.012,2.223 h 60.773 c -0.398,-0.735 -0.804,-1.457 -1.214,-2.188 -0.219,0.043 -0.442,0.063 -0.66,0.063 z m 6.851,12.769 c -0.613,-1.554 -1.277,-3.097 -1.973,-4.621 v 2.41 c 0,1.16 0.872,2.11 1.973,2.211 z m -2.422,-2.211 v -3.363 c -0.308,-0.668 -0.621,-1.32 -0.949,-1.98 h -0.066 v 5.343 c 0,1.469 -1.168,2.66 -2.61,2.66 -1.437,0 -2.613,-1.191 -2.613,-2.66 v -5.343 h -1.02 v 5.343 c 0,1.469 -1.168,2.66 -2.613,2.66 -1.441,0 -2.609,-1.191 -2.609,-2.66 v -5.343 h -1.016 v 5.343 c 0,1.469 -1.176,2.66 -2.617,2.66 -1.438,0 -2.613,-1.191 -2.613,-2.66 v -5.343 h -1.016 v 5.343 c 0,1.469 -1.176,2.66 -2.609,2.66 -1.446,0 -2.614,-1.191 -2.614,-2.66 v -5.343 h -1.019 v 5.343 c 0,1.469 -1.172,2.66 -2.613,2.66 -1.442,0 -2.61,-1.191 -2.61,-2.66 v -5.343 h -1.015 v 5.343 c 0,1.469 -1.172,2.66 -2.618,2.66 -1.437,0 -2.609,-1.191 -2.609,-2.66 v -5.343 h -1.02 v 5.343 c 0,1.469 -1.175,2.66 -2.609,2.66 -1.441,0 -2.613,-1.191 -2.613,-2.66 v -5.343 h -1.024 v 5.343 c 0,1.469 -1.172,2.66 -2.605,2.66 -1.442,0 -2.617,-1.191 -2.617,-2.66 v -5.343 h -1.02 v 5.343 c 0,1.469 -1.172,2.66 -2.609,2.66 -1.434,0 -2.613,-1.191 -2.613,-2.66 v -5.343 h -1.016 v 5.343 c 0,1.469 -1.172,2.66 -2.617,2.66 -1.434,0 -2.602,-1.191 -2.602,-2.66 v -5.343 h -0.883 c 0,0.921 0.004,1.793 0.004,2.593 0.004,2.239 0.422,5.629 1.731,7.875 h 65.101 c -0.301,-0.824 -0.621,-1.648 -0.937,-2.465 -1.434,-0.007 -2.602,-1.195 -2.602,-2.66 z m -180.398,5.567 h -8.84 c -0.168,0.484 -0.336,0.972 -0.504,1.457 h 9.457 l 0.055,0.027 18.48,10.152 18.438,-10.152 0.05,-0.027 h 24.653 c 0.027,-0.496 0.054,-0.985 0.082,-1.457 h -24.621 l -2.145,1.148 v 0.031 h -0.047 l -16.304,8.762 -0.106,0.055 -0.101,-0.055 z m 0.261,-10.91 v 5.343 c 0,1.469 -1.168,2.66 -2.609,2.66 -1.441,0 -2.613,-1.191 -2.613,-2.66 v -3.75 c -1.379,2.903 -2.621,5.867 -3.719,8.875 h 8.789 l 0.051,0.028 2.027,1.089 v -11.585 z m -4.445,0 c -0.113,0.234 -0.234,0.476 -0.355,0.718 h 0.019 v 4.625 c 0,1.227 0.973,2.219 2.172,2.219 1.195,0 2.164,-0.992 2.164,-2.219 v -5.343 z m 6.371,-3.09 v -7.934 c -1.711,2.582 -3.308,5.231 -4.765,7.934 z m -5.008,0.445 c -0.394,0.727 -0.769,1.457 -1.14,2.199 h 6.148 v -2.199 z m 183.461,141.109 c -24.839,24.84 -57.879,38.528 -93.007,38.528 -35.137,0 -68.164,-13.688 -93.008,-38.528 -24.844,-24.847 -38.532,-57.879 -38.532,-93.011 0,-35.133 13.688,-68.164 38.532,-93.004 24.844,-24.848 57.871,-38.532 93.008,-38.532 35.128,0 68.168,13.684 93.007,38.532 24.844,24.84 38.532,57.871 38.532,93.004 0,35.132 -13.688,68.164 -38.532,93.011 z m -135.964,7.082 c -1.477,-0.621 -2.469,-0.761 -3.293,-0.246 -0.641,0.391 -1.028,1.117 -1.547,2.364 l -3.637,8.683 c -0.441,1.063 -0.645,1.668 -0.516,1.887 0.133,0.219 0.809,0.726 2.192,1.305 6.172,2.586 9.246,-1.274 10.336,-3.86 1.828,-4.379 1.035,-8.219 -3.535,-10.133 z m -1.821,16.106 c -1.762,-0.078 -3.492,-0.629 -5.472,-1.461 -2,-0.836 -3.875,-1.703 -5.832,-2.66 -0.188,-0.196 -0.008,-0.563 0.23,-0.598 l 0.547,0.145 c 1.047,0.269 1.375,-0.172 2.062,-1.821 l 3.743,-8.941 c 1.035,-2.465 1.105,-2.77 -0.176,-3.531 l -0.516,-0.301 c -0.082,-0.195 0.121,-0.551 0.297,-0.567 1.082,0.512 1.918,0.887 2.906,1.305 0.828,0.34 2.41,0.785 3.922,1.414 1.809,0.758 3.61,1.875 4.793,3.34 2.074,2.582 2.43,5.75 1.184,8.734 -1.305,3.11 -4.02,5.122 -7.688,4.942 z m 18.383,-10.516 -0.637,-0.101 c -1.5,-0.235 -1.64,0.093 -2.371,2.703 l -2.453,8.742 c -0.726,2.602 -0.793,3.035 0.613,3.563 l 0.602,0.218 c 0.129,0.145 -0.051,0.571 -0.219,0.606 -1.211,-0.395 -2.039,-0.653 -3.023,-0.934 -1.031,-0.285 -1.875,-0.496 -3.117,-0.789 -0.125,-0.117 -0.047,-0.574 0.125,-0.629 l 0.628,0.121 c 1.477,0.285 1.645,-0.117 2.379,-2.726 l 2.454,-8.739 c 0.726,-2.605 0.773,-2.964 -0.629,-3.543 l -0.59,-0.246 c -0.106,-0.187 0.054,-0.566 0.222,-0.597 1.211,0.394 2.043,0.652 3.075,0.941 0.984,0.274 1.82,0.484 3.066,0.781 0.121,0.114 0.047,0.571 -0.125,0.629 z m 99.883,-22.008 c 2.039,3.059 4.851,6.852 6.433,9.047 1.051,1.446 1.504,1.711 2.879,0.868 l 0.457,-0.282 c 0.164,0.008 0.426,0.352 0.364,0.524 -0.661,0.433 -1.356,0.922 -1.864,1.304 -0.402,0.305 -0.832,0.629 -1.476,1.207 -0.746,-0.91 -2.188,-1.589 -4.492,-2.753 l -4.844,-2.461 c -1.293,-0.661 -2.598,-1.336 -3.867,-1.883 l -0.043,0.031 c 0.183,1.262 0.445,2.539 0.691,3.848 l 1.207,6.461 c 0.348,1.781 0.785,3.429 1.461,4.164 -0.715,0.441 -1.269,0.855 -1.734,1.207 -0.512,0.383 -0.989,0.773 -1.567,1.277 -0.23,0.039 -0.472,-0.254 -0.468,-0.453 l 0.296,-0.285 c 1.122,-1.098 1.059,-1.524 0.055,-2.782 -0.887,-1.089 -2.266,-2.761 -3.64,-4.382 -1.637,-1.926 -2.579,-2.973 -3.711,-4.231 -1.196,-1.336 -1.575,-1.246 -2.52,-0.722 L 718.211,455 c -0.199,-0.008 -0.387,-0.344 -0.34,-0.539 0.715,-0.484 1.469,-1.008 2.121,-1.5 0.774,-0.582 1.563,-1.199 2.219,-1.762 0.191,-0.043 0.457,0.266 0.41,0.496 l -0.734,0.645 c -0.75,0.656 -0.629,1.074 0.504,2.582 1.304,1.734 2.75,3.492 3.742,4.695 0.949,1.133 1.898,2.27 2.926,3.477 l 0.039,-0.032 c -0.254,-1.273 -0.618,-2.656 -0.895,-3.917 l -1.117,-5.317 c -0.274,-1.351 -0.797,-4.086 -1.262,-5.43 -0.008,-0.089 0.078,-0.187 0.125,-0.214 0.078,-0.063 0.176,-0.106 0.262,-0.079 1.07,0.668 3.426,1.899 5.687,3.004 l 4.504,2.211 c 1,0.492 3,1.543 3.309,1.657 l 0.051,-0.032 -6.324,-8.558 c -0.985,-1.305 -1.231,-1.629 -2.305,-0.981 l -0.633,0.383 c -0.219,-0.035 -0.41,-0.332 -0.344,-0.543 0.867,-0.586 1.797,-1.254 2.516,-1.793 0.73,-0.547 1.551,-1.195 2.367,-1.863 0.195,-0.031 0.441,0.265 0.418,0.48 l -0.609,0.551 c -0.895,0.797 -0.461,1.336 0.242,2.402 z m -141.86,1.137 -0.671,-0.469 c -1.204,-0.867 -1.497,-0.609 -3.239,1.426 l -7.382,8.617 c -0.543,0.641 -0.583,0.645 0,1.141 l 1.374,1.18 c 1.067,0.91 1.934,1.39 2.665,1.441 0.468,0.035 1.222,-0.566 1.691,-1 0.203,-0.031 0.523,0.25 0.473,0.469 -0.555,0.535 -1.766,2.219 -2.227,3.199 -0.105,0.039 -0.34,-0.125 -0.402,-0.242 0.14,-0.754 0,-0.942 -1.047,-1.836 l -7.848,-6.727 c -0.89,-0.761 -1.512,-1.328 -2.16,-0.808 -0.109,0.008 -0.344,-0.227 -0.371,-0.317 0.531,-0.89 1.301,-2.379 1.742,-3.515 0.207,-0.09 0.563,0.043 0.621,0.297 -0.207,0.664 -0.379,1.261 -0.277,2.082 0.105,0.859 1.137,1.808 1.969,2.523 l 1.066,0.914 c 0.578,0.5 0.598,0.481 1.113,-0.125 l 7.418,-8.656 c 1.739,-2.035 1.891,-2.41 0.871,-3.449 l -0.648,-0.653 c -0.074,-0.234 0.25,-0.531 0.414,-0.492 1.211,1.106 1.871,1.703 2.645,2.367 0.773,0.661 1.449,1.211 2.585,2.118 0.067,0.16 -0.191,0.539 -0.375,0.515 z m 52.52,22.711 c -4.965,-0.742 -7.512,3.828 -8.07,7.563 -0.836,5.523 2.308,7.828 4.929,8.218 4.817,0.727 7.336,-3.488 7.953,-7.652 0.758,-4.969 -1.777,-7.672 -4.812,-8.129 z m -2.828,16.629 c -5.199,-0.781 -8.402,-5.207 -7.649,-10.254 0.684,-4.543 4.672,-8.043 10.27,-7.203 4.867,0.727 8.195,5.023 7.437,10.117 -0.668,4.442 -4.23,8.215 -10.058,7.34 z m 17.816,-7.48 c -1.3,0.019 -1.679,0.074 -1.765,0.152 -0.071,0.105 -0.067,0.387 -0.059,0.848 l 0.098,5.964 c 0.015,0.715 0.09,0.813 1.676,0.789 2.832,-0.046 4.042,-1.976 4.015,-3.992 -0.035,-1.734 -0.629,-2.621 -1.336,-3.144 -0.738,-0.547 -1.711,-0.637 -2.629,-0.617 z m 9.914,-8.329 c -0.687,0.063 -1.316,0.356 -1.75,0.743 -1.711,1.48 -3.027,3.546 -5.015,6.871 -0.121,0.203 -0.25,0.465 -0.117,0.613 1.281,0.488 3.222,1.785 3.261,4.207 0.028,1.785 -0.843,2.949 -2.062,3.609 -1.164,0.653 -2.66,0.809 -4.242,0.832 -2.504,0.039 -4.266,-0.004 -5.696,-0.113 -0.207,-0.098 -0.215,-0.508 -0.031,-0.637 l 0.809,-0.117 c 1.046,-0.144 1.109,-0.578 1.078,-3 l -0.153,-9.16 c -0.046,-2.676 -0.101,-3.008 -1.582,-3.16 l -0.64,-0.067 c -0.157,-0.175 -0.106,-0.562 0.039,-0.64 1.207,0.031 2.125,0.043 3.191,0.027 1.028,-0.019 1.891,-0.058 3.039,-0.125 0.149,0.074 0.211,0.508 0.059,0.637 l -0.535,0.078 c -1.469,0.234 -1.524,0.539 -1.477,3.215 l 0.047,3.219 c 0.012,0.535 0.063,0.558 1.211,0.543 1.019,-0.016 1.43,-0.278 1.797,-0.848 0.773,-1.156 1.789,-2.934 2.441,-3.891 1.766,-2.605 3.055,-3.265 5.223,-3.3 0.484,-0.008 0.894,0.035 1.133,0.109 0.125,0.102 0.101,0.301 -0.028,0.359 z m 17.125,13.036 c 0.2,0.304 0.715,0.457 1.352,0.41 l 0.613,-0.039 c 0.153,0.132 0.227,0.453 0.043,0.613 -0.918,0.086 -1.597,0.164 -2.656,0.328 -0.988,0.149 -1.914,0.316 -2.867,0.516 -0.168,-0.078 -0.262,-0.399 -0.145,-0.598 l 0.633,-0.145 c 0.617,-0.152 1.047,-0.394 1.172,-0.726 0.316,-0.824 -0.082,-3.727 -0.32,-5.293 l -0.45,-2.902 c -0.582,-3.832 -2.41,-6.496 -6.074,-5.93 -3.851,0.586 -4.703,3.457 -4.082,7.516 l 0.836,5.445 c 0.406,2.625 0.52,3.047 2,2.945 l 0.613,-0.043 c 0.168,0.078 0.184,0.516 0.043,0.614 -1.242,0.14 -2.078,0.242 -3.113,0.402 -1.008,0.156 -1.863,0.312 -3.113,0.555 -0.16,-0.051 -0.282,-0.473 -0.145,-0.598 l 0.625,-0.149 c 1.442,-0.347 1.426,-0.789 1.028,-3.41 l -0.915,-5.949 c -0.457,-3 -0.113,-4.937 1.055,-6.254 1.07,-1.246 2.758,-1.84 4.504,-2.105 1.863,-0.289 3.828,0.082 5.098,1.101 1.64,1.297 2.351,3.563 2.687,5.754 l 0.442,2.852 c 0.211,1.41 0.66,4.312 1.136,5.09 z m 22.235,-5.657 c -0.473,0.168 -0.985,0.34 -1.778,0.696 -0.433,-1.094 -1.582,-2.184 -3.422,-4.008 l -3.847,-3.836 c -1.024,-1.027 -2.055,-2.074 -3.09,-2.988 l -0.055,0.019 c -0.218,1.258 -0.367,2.547 -0.531,3.871 l -0.851,6.52 c -0.215,1.801 -0.313,3.504 0.113,4.41 -0.824,0.203 -1.477,0.426 -2.035,0.617 -0.602,0.203 -1.172,0.426 -1.879,0.719 -0.227,-0.028 -0.371,-0.383 -0.305,-0.57 l 0.371,-0.176 c 1.406,-0.699 1.477,-1.125 0.91,-2.629 -0.504,-1.313 -1.297,-3.332 -2.109,-5.293 -0.957,-2.344 -1.535,-3.625 -2.223,-5.176 -0.722,-1.641 -1.109,-1.664 -2.168,-1.461 l -0.562,0.106 c -0.188,-0.071 -0.266,-0.446 -0.153,-0.621 0.836,-0.231 1.711,-0.508 2.485,-0.766 0.914,-0.316 1.847,-0.66 2.644,-0.992 0.2,0.015 0.356,0.398 0.239,0.597 l -0.891,0.387 c -0.922,0.391 -0.93,0.828 -0.32,2.613 0.703,2.055 1.531,4.168 2.105,5.621 0.559,1.368 1.102,2.747 1.715,4.208 l 0.047,-0.012 c 0.152,-1.293 0.226,-2.723 0.355,-4.004 l 0.578,-5.402 c 0.153,-1.375 0.5,-4.137 0.477,-5.551 0.023,-0.094 0.137,-0.16 0.188,-0.176 0.093,-0.035 0.195,-0.043 0.273,0.016 0.809,0.961 2.672,2.855 4.484,4.613 l 3.594,3.488 c 0.805,0.778 2.379,2.395 2.637,2.598 l 0.054,-0.016 -3.367,-10.09 c -0.527,-1.539 -0.664,-1.929 -1.89,-1.648 l -0.723,0.168 c -0.191,-0.094 -0.285,-0.438 -0.16,-0.617 1.016,-0.289 2.101,-0.641 2.949,-0.926 0.871,-0.297 1.844,-0.656 2.82,-1.047 0.2,0.039 0.356,0.395 0.262,0.586 l -0.75,0.336 c -1.105,0.484 -0.855,1.129 -0.519,2.363 1.004,3.539 2.496,8.012 3.324,10.586 0.554,1.703 0.906,2.098 2.48,1.719 l 0.52,-0.125 c 0.152,0.058 0.293,0.465 0.18,0.613 -0.758,0.207 -1.571,0.453 -2.176,0.66 z m 69.176,-85.105 -8.95,-2.035 c -2.613,-0.602 -2.968,-0.633 -3.453,0.781 l -0.242,0.73 c -0.188,0.114 -0.566,-0.027 -0.609,-0.195 0.371,-1.379 0.574,-2.172 0.816,-3.215 l 0.52,-2.289 c 0.578,-2.562 1.093,-4.93 1.332,-6.211 0.757,-0.195 3.449,-0.312 3.726,-0.25 0.168,0.039 0.164,0.535 0,0.657 -1.379,0.207 -2.422,0.648 -2.836,1.082 -0.312,0.343 -0.535,0.843 -1.015,2.96 -0.446,1.961 -0.254,2.504 -0.043,2.836 0.371,0.559 0.996,0.778 2.566,1.141 l 8.652,1.973 c 2.621,0.59 3.024,0.632 3.485,-0.801 l 0.187,-0.586 c 0.129,-0.129 0.567,0.023 0.602,0.187 -0.328,1.235 -0.547,2.075 -0.766,3.043 -0.23,0.997 -0.398,1.848 -0.664,3.247 -0.109,0.136 -0.562,0.085 -0.629,-0.09 l 0.086,-0.633 c 0.231,-1.598 -0.144,-1.731 -2.765,-2.332 z m -197.774,48.652 c -1.793,1.633 -3.953,1.457 -5.769,0.938 l -2.313,-0.657 c -1.07,-0.3 -2.687,-0.488 -3.781,0.508 -0.875,0.789 -1.739,2.297 -0.055,4.153 1.649,1.812 3.336,1.207 4.461,0.625 0.203,-0.004 0.422,0.347 0.371,0.527 -0.785,0.719 -2,1.512 -2.609,1.754 -0.133,-0.153 -0.414,-0.383 -0.711,-0.559 -0.574,-0.371 -1.313,-0.949 -1.848,-1.535 -2.222,-2.453 -2.043,-5.172 -0.246,-6.801 1.551,-1.406 3.621,-1.293 5.102,-0.91 l 2.796,0.727 c 2.141,0.57 3.223,-0.098 4.055,-0.852 1.129,-1.031 1.465,-2.746 0.028,-4.332 -1.993,-2.191 -4.547,-1.285 -5.766,-0.695 -0.184,0.027 -0.402,-0.289 -0.356,-0.5 0.922,-0.774 2.485,-1.742 3.106,-1.895 0.535,0.168 1.933,0.727 3.375,2.309 2.23,2.457 2.238,5.312 0.16,7.195 z m 196.379,-68.699 4.535,-1.301 c 0.781,-0.226 1.418,-0.437 1.547,-0.508 v -0.05 c -0.293,-0.172 -0.969,-0.45 -1.563,-0.692 l -4.054,-1.664 c -0.672,-0.273 -0.778,-0.23 -0.828,0.508 l -0.215,3.129 c -0.051,0.715 -0.024,0.742 0.578,0.578 z m -6.535,3.078 c -0.938,0.293 -1.254,0.832 -1.344,1.442 l -0.141,0.835 c -0.132,0.145 -0.539,0.063 -0.636,-0.097 0.082,-0.684 0.195,-1.598 0.254,-2.438 0.054,-1.195 0.105,-1.988 0.101,-2.652 0.117,-0.223 0.528,-0.195 0.641,-0.004 l 0.019,0.844 c 0.008,0.613 0.153,0.754 0.457,0.769 0.282,0.02 0.977,-0.105 2.149,-0.41 l 2.738,-0.707 c 0.539,-0.144 0.629,-0.285 0.672,-0.926 l 0.27,-3.843 c 0.046,-0.762 -0.016,-0.868 -0.571,-1.082 l -3.383,-1.364 c -0.589,-0.246 -1.043,-0.402 -1.328,-0.422 -0.242,-0.015 -0.422,0.329 -0.515,0.86 l -0.125,0.73 c -0.141,0.172 -0.543,0.117 -0.629,-0.093 0.07,-0.739 0.187,-1.7 0.273,-2.918 0.078,-1.149 0.117,-2.04 0.141,-3.09 0.105,-0.118 0.511,-0.141 0.629,0.047 l 0.031,0.691 c 0.055,1.105 0.414,1.461 2.555,2.348 l 9.984,4.195 c 1.094,0.457 2.238,0.945 3.332,1.355 0.18,0.063 0.219,0.243 0.203,0.391 -0.344,0.262 -0.832,0.664 -1.055,1.262 -0.398,-0.102 -0.898,0.015 -1.839,0.304 l -7.047,2.125 c -2.926,0.872 -4.633,1.469 -5.836,1.848 z M 604.68,465.812 c -0.754,1.211 -2.313,3.7 -2.45,4.606 -0.05,0.363 0.243,0.812 0.754,1.195 l 0.493,0.367 c 0.031,0.196 -0.129,0.489 -0.364,0.489 -0.754,-0.528 -1.324,-0.914 -2.234,-1.477 -0.844,-0.531 -1.656,-1.008 -2.508,-1.476 -0.078,-0.168 0.059,-0.477 0.281,-0.543 l 0.567,0.289 c 0.566,0.297 1.054,0.386 1.363,0.218 0.773,-0.418 2.371,-2.878 3.211,-4.222 l 1.551,-2.488 c 2.051,-3.29 2.398,-6.5 -0.735,-8.458 -3.32,-2.066 -5.828,-0.449 -8,3.04 l -2.918,4.671 c -1.402,2.258 -1.593,2.649 -0.398,3.543 l 0.488,0.364 c 0.074,0.172 -0.199,0.508 -0.367,0.492 -1.031,-0.699 -1.738,-1.168 -2.621,-1.723 -0.867,-0.539 -1.621,-0.98 -2.727,-1.609 -0.086,-0.145 0.098,-0.539 0.278,-0.547 l 0.574,0.297 c 1.32,0.676 1.594,0.332 2.996,-1.922 l 3.188,-5.106 c 1.605,-2.578 3.136,-3.816 4.871,-4.058 1.636,-0.246 3.3,0.406 4.793,1.336 1.601,1 2.851,2.562 3.148,4.156 0.402,2.055 -0.531,4.238 -1.711,6.121 z M 537.332,352.18 c -0.176,2.824 1.66,4.195 3.668,4.316 1.734,0.106 2.66,-0.422 3.238,-1.078 0.606,-0.707 0.766,-1.664 0.824,-2.582 0.083,-1.297 0.055,-1.684 -0.019,-1.766 -0.098,-0.082 -0.379,-0.101 -0.836,-0.125 l -5.957,-0.367 c -0.715,-0.047 -0.82,0.02 -0.918,1.602 z m 0.453,-4.856 c 0.063,1.051 0.492,1.156 2.91,1.309 l 9.141,0.562 c 2.672,0.164 3.008,0.133 3.277,-1.332 l 0.117,-0.633 c 0.188,-0.14 0.567,-0.066 0.633,0.09 -0.125,1.196 -0.203,2.11 -0.269,3.18 -0.067,1.02 -0.094,1.887 -0.11,3.035 -0.093,0.149 -0.527,0.176 -0.644,0.012 l -0.043,-0.539 c -0.113,-1.492 -0.418,-1.559 -3.086,-1.727 l -3.211,-0.199 c -0.531,-0.031 -0.562,0.016 -0.633,1.164 -0.062,1.02 0.164,1.442 0.699,1.859 1.098,0.86 2.793,2.012 3.692,2.735 2.461,1.961 3.015,3.297 2.883,5.465 -0.028,0.484 -0.106,0.89 -0.192,1.113 -0.113,0.121 -0.312,0.082 -0.355,-0.051 -0.016,-0.691 -0.254,-1.34 -0.61,-1.797 -1.339,-1.82 -3.296,-3.297 -6.453,-5.539 -0.199,-0.136 -0.441,-0.277 -0.601,-0.16 -0.59,1.238 -2.032,3.067 -4.453,2.918 -1.782,-0.113 -2.872,-1.07 -3.434,-2.336 -0.563,-1.211 -0.598,-2.723 -0.504,-4.297 0.156,-2.492 0.344,-4.246 0.555,-5.668 0.121,-0.195 0.523,-0.168 0.64,0.016 z m 29.457,75.817 c -2.086,1.242 -4.168,0.644 -5.847,-0.227 l -2.137,-1.098 c -0.988,-0.507 -2.539,-1.007 -3.809,-0.25 -1.004,0.598 -2.156,1.914 -0.871,4.055 1.254,2.106 3.031,1.848 4.254,1.5 0.191,0.035 0.344,0.426 0.258,0.59 -0.918,0.547 -2.262,1.086 -2.91,1.203 -0.098,-0.176 -0.325,-0.461 -0.586,-0.695 -0.492,-0.477 -1.098,-1.184 -1.5,-1.86 -1.703,-2.851 -0.981,-5.476 1.101,-6.718 1.793,-1.075 3.801,-0.551 5.18,0.113 l 2.602,1.273 c 1.98,0.981 3.168,0.535 4.136,-0.039 1.313,-0.785 1.981,-2.402 0.883,-4.242 -1.516,-2.543 -4.199,-2.156 -5.512,-1.816 -0.183,-0.012 -0.339,-0.368 -0.254,-0.567 1.059,-0.57 2.782,-1.215 3.418,-1.238 0.493,0.27 1.762,1.094 2.856,2.934 1.703,2.847 1.144,5.64 -1.262,7.082 z m -26.621,-93.063 -0.035,0.406 c -0.125,1.516 0.238,1.641 2.84,2.176 l 9,1.832 c 2.621,0.535 3.023,0.488 3.441,-0.914 l 0.242,-0.805 c 0.18,-0.121 0.571,0.012 0.618,0.176 -0.352,1.461 -0.555,2.309 -0.774,3.383 l -0.457,2.25 c -0.457,2.223 -0.883,4.457 -1.293,6.715 -0.746,0.183 -2.797,0.418 -3.707,0.418 -0.203,-0.149 -0.207,-0.516 -0.043,-0.664 1.43,-0.387 2.438,-0.879 2.785,-1.278 0.387,-0.492 0.633,-1.199 1.028,-3.125 0.445,-2.199 0.281,-2.781 0.039,-3.14 -0.336,-0.485 -1.176,-0.735 -2.5,-1.004 l -3.524,-0.723 c -0.652,-0.133 -0.695,-0.062 -0.843,0.688 l -0.297,1.449 c -0.196,0.977 -0.293,1.582 -0.266,1.953 0.02,0.524 0.359,0.777 0.789,0.969 l 0.934,0.422 c 0.121,0.152 0.039,0.578 -0.16,0.64 -0.551,-0.105 -1.477,-0.398 -2.379,-0.586 -0.95,-0.195 -1.95,-0.289 -2.547,-0.414 -0.157,-0.136 -0.067,-0.562 0.109,-0.656 l 1.063,0.008 c 0.652,0 0.839,-0.145 0.996,-0.422 0.16,-0.281 0.375,-1.047 0.586,-2.094 l 0.3,-1.449 c 0.153,-0.754 0.164,-0.824 -0.535,-0.965 l -5,-1.027 c -0.949,-0.188 -1,-0.203 -1.152,0.551 l -0.367,1.797 c -0.223,1.101 -0.364,1.902 -0.344,2.457 0.062,1.367 0.887,1.769 1.988,2.386 0.121,0.153 -0.008,0.543 -0.179,0.614 -1.079,-0.329 -2.848,-0.844 -3.243,-1.079 0.137,-0.289 0.434,-1.761 0.762,-3.363 l 0.965,-4.695 c 0.203,-1.027 0.355,-1.883 0.523,-2.965 0.106,-0.137 0.567,-0.094 0.637,0.074 z m -2.559,48.734 0.157,0.622 c 0.375,1.464 0.812,1.441 3.48,0.996 l 8.953,-1.508 c 2.664,-0.449 3.012,-0.563 2.942,-2.074 l -0.035,-0.641 c 0.125,-0.176 0.539,-0.191 0.64,-0.055 0.16,1.266 0.278,2.125 0.453,3.18 0.172,1.008 0.34,1.859 0.606,3.109 -0.047,0.164 -0.496,0.286 -0.621,0.153 l -0.18,-0.617 c -0.43,-1.45 -0.789,-1.442 -3.457,-0.993 l -8.957,1.508 c -2.668,0.449 -3.086,0.57 -2.961,2.074 l 0.055,0.637 c -0.071,0.168 -0.535,0.195 -0.637,0.059 -0.16,-1.266 -0.281,-2.129 -0.449,-3.133 -0.176,-1.059 -0.348,-1.91 -0.61,-3.156 0.051,-0.164 0.497,-0.293 0.621,-0.161 z m 2.243,-12.773 c 2.086,-0.152 3.648,1.215 4.582,2.426 l 1.758,2.297 c 1.332,1.769 2.593,1.906 3.718,1.82 1.528,-0.113 2.844,-1.258 2.688,-3.394 -0.223,-2.958 -2.793,-3.813 -4.121,-4.094 -0.157,-0.094 -0.133,-0.477 0.031,-0.617 1.203,-0.039 3.031,0.156 3.613,0.418 0.317,0.464 1.078,1.761 1.238,3.902 0.247,3.308 -1.5,5.562 -4.3,5.765 -2.418,0.184 -4.012,-1.281 -5.125,-2.812 l -1.422,-1.941 c -0.656,-0.899 -1.813,-2.039 -3.289,-1.93 -1.168,0.086 -2.785,0.746 -2.598,3.238 0.18,2.442 1.887,3.008 3.133,3.242 0.16,0.121 0.117,0.536 -0.031,0.645 -1.071,0.078 -2.508,-0.043 -3.141,-0.227 -0.012,-0.203 -0.09,-0.554 -0.215,-0.875 -0.226,-0.652 -0.449,-1.554 -0.508,-2.343 -0.246,-3.313 1.575,-5.336 3.989,-5.52 z m 28.73,-79.812 c -1.051,-0.957 -3.219,-2.942 -4.082,-3.243 -0.348,-0.109 -0.844,0.098 -1.312,0.532 l -0.45,0.422 c -0.203,-0.008 -0.461,-0.215 -0.421,-0.458 0.66,-0.644 1.14,-1.136 1.867,-1.925 0.668,-0.735 1.285,-1.45 1.898,-2.2 0.18,-0.039 0.461,0.145 0.485,0.375 l -0.391,0.504 c -0.387,0.508 -0.563,0.965 -0.461,1.305 0.273,0.836 2.406,2.852 3.574,3.918 l 2.172,1.977 c 2.863,2.609 5.957,3.535 8.445,0.8 2.633,-2.882 1.496,-5.644 -1.543,-8.418 l -4.066,-3.711 c -1.961,-1.785 -2.316,-2.039 -3.41,-1.035 l -0.453,0.422 c -0.172,0.043 -0.457,-0.289 -0.414,-0.453 0.882,-0.891 1.468,-1.492 2.172,-2.266 0.691,-0.753 1.253,-1.414 2.074,-2.39 0.16,-0.059 0.515,0.195 0.488,0.379 l -0.395,0.504 c -0.898,1.179 -0.613,1.507 1.344,3.296 l 4.449,4.055 c 2.247,2.047 3.192,3.77 3.114,5.528 -0.055,1.648 -0.992,3.175 -2.184,4.472 -1.269,1.387 -3.035,2.34 -4.66,2.344 -2.094,0.019 -4.066,-1.293 -5.707,-2.789 z m -11.297,108.335 -0.304,-0.761 c -0.528,-1.387 -0.914,-1.336 -3.485,-0.594 l -10.91,3.137 c -0.812,0.234 -0.844,0.218 -0.629,0.953 l 0.5,1.742 c 0.387,1.348 0.852,2.219 1.43,2.668 0.375,0.293 1.332,0.203 1.969,0.098 0.183,0.078 0.3,0.5 0.132,0.652 -0.757,0.133 -2.691,0.879 -3.625,1.438 -0.109,-0.02 -0.211,-0.282 -0.199,-0.422 0.535,-0.547 0.52,-0.782 0.141,-2.106 l -2.86,-9.929 c -0.324,-1.129 -0.535,-1.946 -1.355,-1.864 -0.098,-0.054 -0.164,-0.383 -0.137,-0.469 0.93,-0.453 2.399,-1.273 3.387,-1.984 0.223,0.043 0.441,0.352 0.355,0.59 -0.539,0.445 -1.003,0.848 -1.378,1.586 -0.383,0.777 -0.043,2.141 0.257,3.195 l 0.391,1.352 c 0.207,0.734 0.23,0.726 0.992,0.508 l 10.961,-3.153 c 2.574,-0.738 2.906,-0.969 2.625,-2.406 l -0.18,-0.902 c 0.067,-0.231 0.496,-0.305 0.61,-0.172 0.406,1.578 0.629,2.445 0.91,3.426 0.285,0.98 0.543,1.808 1,3.191 -0.031,0.168 -0.461,0.344 -0.598,0.226 z m -2.308,13.504 -1.242,-2.882 c -0.286,-0.653 -0.317,-0.668 -0.778,-0.25 l -3.437,3.238 c -0.59,0.558 -1.055,1.035 -1.149,1.156 l 0.028,0.047 c 0.339,0.02 1.066,-0.043 1.707,-0.098 l 4.363,-0.382 c 0.726,-0.059 0.801,-0.149 0.508,-0.829 z m 9.316,3.895 -0.34,-0.598 c -0.551,-0.957 -1.035,-1.109 -3.344,-0.922 l -10.804,0.852 c -1.176,0.098 -2.414,0.184 -3.578,0.324 -0.184,0.028 -0.305,-0.117 -0.364,-0.262 0.196,-0.386 0.442,-0.968 0.368,-1.601 0.402,-0.09 0.785,-0.426 1.488,-1.117 l 5.297,-5.114 c 2.199,-2.113 3.437,-3.429 4.336,-4.32 0.699,-0.687 0.73,-1.312 0.539,-1.894 l -0.262,-0.805 c 0.051,-0.195 0.445,-0.305 0.606,-0.203 0.25,0.64 0.562,1.508 0.898,2.277 0.496,1.09 0.809,1.817 1.121,2.406 -0.004,0.254 -0.379,0.411 -0.566,0.297 l -0.403,-0.742 c -0.293,-0.543 -0.48,-0.594 -0.765,-0.477 -0.25,0.11 -0.813,0.547 -1.719,1.356 l -2.106,1.879 c -0.418,0.379 -0.429,0.547 -0.175,1.133 l 1.523,3.539 c 0.301,0.703 0.414,0.765 0.996,0.707 l 3.637,-0.344 c 0.641,-0.055 1.113,-0.117 1.371,-0.23 0.23,-0.106 0.23,-0.493 0.066,-1 l -0.222,-0.711 c 0.047,-0.215 0.433,-0.352 0.609,-0.207 0.266,0.687 0.606,1.597 1.09,2.722 0.457,1.059 0.832,1.867 1.293,2.805 -0.047,0.156 -0.402,0.367 -0.59,0.25 z m -6.832,-109.422 c -0.988,-0.637 -3.617,-2.398 -4.621,-2.531 -0.227,-0.024 -0.676,0.289 -1.227,0.906 l -0.234,0.274 c -0.215,0.046 -0.516,-0.153 -0.512,-0.387 0.516,-0.703 0.895,-1.242 1.496,-2.168 0.524,-0.813 0.977,-1.555 1.571,-2.571 0.172,-0.128 0.531,0.071 0.566,0.305 l -0.199,0.395 c -0.449,0.926 -0.539,1.347 -0.426,1.605 0.375,0.821 3.149,2.641 4.156,3.293 l 4.578,2.969 c 0.454,0.289 0.797,0.512 0.961,0.496 l 0.024,-0.043 c -0.379,-1.668 -0.895,-3.496 -1.59,-6.043 l -0.988,-3.59 c -0.336,-1.219 -1.528,-5.574 -2.344,-6.711 0.227,-0.25 0.48,-0.597 0.699,-0.941 0.254,-0.383 0.985,-1.524 1.504,-2.465 0.195,-0.113 0.52,0.094 0.567,0.309 l -0.196,0.386 c -0.269,0.559 -0.453,1.168 -0.344,1.661 0.2,0.769 0.637,1.085 1.231,1.472 l 6.195,4.004 c 1.028,0.668 3.629,2.379 4.594,2.578 0.301,0.047 0.656,-0.215 1.035,-0.664 l 0.442,-0.543 c 0.21,-0.039 0.496,0.18 0.507,0.395 -0.527,0.722 -0.929,1.285 -1.507,2.183 -0.512,0.797 -0.977,1.555 -1.555,2.547 -0.203,0.082 -0.473,-0.062 -0.563,-0.301 l 0.364,-0.703 c 0.304,-0.566 0.449,-1.074 0.3,-1.355 -0.406,-0.778 -3.175,-2.606 -4.183,-3.254 l -4.672,-3.027 c -0.641,-0.415 -1.148,-0.711 -1.457,-0.79 l -0.031,0.04 c 0.175,0.753 0.996,3.347 1.281,4.359 l 2.437,8.625 c 0.918,3.234 1.266,4.34 1.469,4.836 -0.16,0.234 -0.347,0.293 -0.504,0.25 -0.515,-0.422 -3.062,-2.07 -3.707,-2.488 z m -8.898,23.199 c -2.84,0.211 -5.118,0.457 -6.485,0.731 -0.617,0.133 -1.031,0.39 -1.285,0.953 l -0.308,0.703 c -0.161,0.078 -0.543,-0.063 -0.586,-0.262 0.336,-0.781 0.625,-1.515 0.906,-2.308 0.32,-0.91 0.621,-1.832 0.812,-2.528 0.157,-0.129 0.535,-0.05 0.621,0.168 l -0.101,0.45 c -0.207,0.878 -0.102,1.187 0.066,1.242 0.168,0.062 0.446,0.133 1.012,0.121 1.18,-0.043 4.301,-0.211 6.18,-0.324 1.472,-0.102 4.308,-0.227 6.156,-0.414 -2.313,-2.176 -4.684,-4.262 -7.082,-6.36 -1.559,-1.39 -2.711,-2.258 -2.934,-2.394 -0.203,-0.047 -0.414,0.097 -0.859,0.964 l -0.176,0.344 c -0.203,0.117 -0.547,-0.058 -0.582,-0.262 0.402,-0.992 0.727,-1.824 1.106,-2.882 0.363,-1.035 0.613,-1.809 0.816,-2.524 0.187,-0.152 0.527,-0.058 0.617,0.16 l -0.105,0.454 c -0.25,1.078 0.125,1.617 1.273,2.648 l 8.934,7.934 c 0.863,0.769 1.89,1.621 2.808,2.246 0,0.132 -0.015,0.261 -0.058,0.379 -0.035,0.101 -0.09,0.187 -0.168,0.242 -1.422,-0.039 -4.61,0.093 -7.164,0.273 z m 11.004,-12.597 -8.172,-3.965 C 549.41,308 549,307.859 548.23,309.156 l -0.324,0.551 c -0.16,0.094 -0.551,-0.156 -0.554,-0.324 0.601,-1.125 1.003,-1.891 1.445,-2.809 0.473,-0.969 0.828,-1.758 1.336,-2.929 0.14,-0.106 0.578,0.05 0.597,0.234 l -0.23,0.594 c -0.539,1.41 -0.172,1.644 2.258,2.824 l 8.168,3.965 c 2.437,1.179 2.781,1.289 3.597,0.011 l 0.352,-0.535 c 0.195,-0.07 0.543,0.149 0.547,0.321 -0.602,1.125 -1.004,1.898 -1.469,2.859 -0.445,0.918 -0.805,1.707 -1.312,2.883 -0.137,0.097 -0.571,-0.055 -0.598,-0.235 l 0.211,-0.609 c 0.496,-1.434 0.195,-1.633 -2.234,-2.812 z m 219.437,6.043 -0.223,-0.379 c -0.316,-0.528 -0.722,-1.012 -1.199,-1.196 -0.754,-0.25 -1.254,-0.062 -1.906,0.231 l -6.738,2.988 c -1.121,0.5 -3.973,1.738 -4.672,2.438 -0.203,0.226 -0.176,0.664 -0.004,1.23 l 0.207,0.66 c -0.074,0.203 -0.414,0.324 -0.61,0.215 -0.308,-0.84 -0.566,-1.48 -1,-2.457 -0.378,-0.863 -0.769,-1.672 -1.281,-2.695 0.043,-0.219 0.313,-0.364 0.563,-0.309 l 0.394,0.692 c 0.305,0.562 0.645,0.968 0.961,0.992 0.879,0.086 3.922,-1.235 5.02,-1.719 l 5.082,-2.258 c 0.703,-0.308 1.222,-0.57 1.461,-0.789 l -0.012,-0.047 c -0.738,-0.258 -3.352,-1 -4.355,-1.308 l -8.551,-2.676 c -3.215,-1.008 -4.328,-1.317 -4.848,-1.426 -0.117,-0.25 -0.058,-0.449 0.055,-0.555 0.644,-0.199 3.418,-1.433 4.109,-1.738 l 5.578,-2.476 c 1.074,-0.477 3.992,-1.707 4.653,-2.477 0.14,-0.18 0.125,-0.727 -0.094,-1.527 l -0.098,-0.344 c 0.078,-0.203 0.406,-0.348 0.606,-0.211 0.304,0.812 0.547,1.43 0.996,2.43 0.39,0.886 0.769,1.668 1.293,2.718 0.008,0.223 -0.352,0.411 -0.567,0.305 l -0.226,-0.371 c -0.528,-0.883 -0.828,-1.191 -1.102,-1.238 -0.902,-0.133 -3.941,1.187 -5.035,1.675 l -4.988,2.211 c -0.488,0.215 -0.864,0.383 -0.938,0.528 l 0.02,0.047 c 1.601,0.601 3.414,1.168 5.93,1.976 l 3.542,1.133 c 1.2,0.387 5.508,1.773 6.899,1.711 0.086,0.324 0.242,0.73 0.402,1.105 0.188,0.415 0.735,1.657 1.242,2.602 -0.011,0.227 -0.359,0.383 -0.566,0.309 z m -31.769,-37.149 -2.813,-0.676 c -2.141,-0.539 -3.211,0.161 -4.031,0.926 -1.117,1.055 -1.414,2.777 0.051,4.336 2.031,2.152 4.574,1.195 5.777,0.578 0.183,-0.027 0.414,0.285 0.371,0.5 -0.91,0.785 -2.457,1.789 -3.074,1.949 -0.535,-0.16 -1.949,-0.687 -3.418,-2.242 -2.27,-2.414 -2.336,-5.269 -0.297,-7.195 1.762,-1.664 3.922,-1.527 5.746,-1.043 l 2.332,0.609 c 1.078,0.289 2.699,0.442 3.77,-0.574 0.851,-0.808 1.695,-2.336 -0.024,-4.152 -1.683,-1.781 -3.359,-1.145 -4.48,-0.547 -0.2,0.012 -0.418,-0.34 -0.383,-0.512 0.781,-0.734 1.98,-1.551 2.582,-1.804 0.141,0.152 0.422,0.371 0.723,0.546 0.589,0.356 1.328,0.922 1.867,1.493 2.277,2.414 2.148,5.132 0.383,6.796 -1.516,1.442 -3.598,1.36 -5.082,1.012 z m 15.601,118.031 c -1.816,4.688 2.09,8.172 5.606,9.536 5.214,2.019 8.144,-0.536 9.101,-3.012 1.758,-4.543 -1.797,-7.922 -5.719,-9.442 -4.695,-1.816 -7.882,0.067 -8.988,2.918 z m 10.641,-5.011 c 4.187,1.621 7.09,5.918 4.965,11.418 -1.903,4.898 -6.922,7.054 -11.68,5.215 -4.281,-1.661 -6.828,-6.317 -4.789,-11.598 1.781,-4.59 6.703,-6.899 11.504,-5.035 z m -11.391,-107.246 -0.43,-0.477 c -1.015,-1.117 -1.394,-0.891 -3.535,0.758 l -7.207,5.531 c -2.144,1.649 -2.394,1.906 -1.617,3.207 l 0.328,0.551 c -0.035,0.219 -0.39,0.422 -0.535,0.351 -0.738,-1.046 -1.25,-1.75 -1.898,-2.597 -0.625,-0.809 -1.172,-1.481 -1.985,-2.461 -0.035,-0.168 0.297,-0.488 0.465,-0.426 l 0.453,0.453 c 1.063,1.086 1.371,0.91 3.52,-0.738 l 7.199,-5.531 c 2.152,-1.649 2.457,-1.953 1.641,-3.223 l -0.348,-0.543 c -0.016,-0.18 0.383,-0.422 0.539,-0.348 0.738,1.047 1.242,1.75 1.863,2.559 0.653,0.848 1.207,1.523 2.02,2.5 0.035,0.172 -0.301,0.492 -0.473,0.434 z m 4.016,12.336 c -1.778,1.113 -3.785,0.632 -5.18,0.011 l -2.629,-1.211 c -2.012,-0.933 -3.191,-0.461 -4.141,0.141 -1.296,0.816 -1.921,2.449 -0.781,4.262 1.574,2.5 4.258,2.054 5.555,1.679 0.187,0.008 0.351,0.36 0.266,0.563 -1.043,0.598 -2.75,1.281 -3.387,1.316 -0.5,-0.258 -1.781,-1.043 -2.926,-2.859 -1.77,-2.801 -1.281,-5.613 1.094,-7.109 2.051,-1.297 4.148,-0.747 5.844,0.082 l 2.175,1.042 c 0.996,0.485 2.555,0.954 3.801,0.161 1,-0.625 2.113,-1.965 0.781,-4.078 -1.312,-2.071 -3.078,-1.766 -4.297,-1.395 -0.191,-0.027 -0.347,-0.41 -0.273,-0.582 0.914,-0.57 2.238,-1.137 2.883,-1.273 0.105,0.175 0.34,0.449 0.601,0.675 0.508,0.465 1.125,1.16 1.551,1.832 1.762,2.805 1.117,5.45 -0.937,6.743 z m 20.707,57.171 c -0.082,0.219 -0.465,0.254 -0.637,0.122 l -0.09,-0.43 c -0.14,-0.602 -0.383,-1.192 -0.773,-1.512 -0.641,-0.469 -1.176,-0.437 -1.887,-0.367 l -7.332,0.762 c -1.219,0.129 -4.316,0.425 -5.191,0.875 -0.27,0.152 -0.375,0.578 -0.391,1.172 l -0.004,0.691 c -0.145,0.168 -0.496,0.18 -0.641,0.016 -0.046,-0.895 -0.089,-1.583 -0.199,-2.649 -0.097,-0.937 -0.215,-1.82 -0.383,-2.961 0.102,-0.191 0.403,-0.25 0.625,-0.117 l 0.161,0.781 c 0.113,0.629 0.32,1.117 0.613,1.242 0.812,0.356 4.109,0.032 5.305,-0.089 l 5.531,-0.575 c 0.758,-0.078 1.34,-0.164 1.636,-0.297 l -0.003,-0.05 c -0.618,-0.481 -2.879,-1.989 -3.731,-2.59 l -7.316,-5.188 c -2.743,-1.949 -3.707,-2.59 -4.172,-2.851 -0.024,-0.274 0.09,-0.442 0.23,-0.508 0.668,0.004 3.692,-0.309 4.449,-0.387 l 6.063,-0.633 c 1.176,-0.121 4.324,-0.398 5.191,-0.925 0.192,-0.121 0.34,-0.649 0.387,-1.477 l 0.012,-0.359 c 0.14,-0.168 0.496,-0.207 0.637,-0.016 0.035,0.871 0.082,1.531 0.195,2.621 0.105,0.965 0.219,1.824 0.391,2.985 -0.059,0.218 -0.458,0.285 -0.629,0.121 l -0.098,-0.43 c -0.227,-0.996 -0.422,-1.391 -0.668,-1.52 -0.809,-0.402 -4.113,-0.082 -5.305,0.039 l -5.429,0.567 c -0.536,0.055 -0.942,0.098 -1.063,0.211 l 0.008,0.055 c 1.344,1.062 2.894,2.16 5.031,3.707 l 3.024,2.175 c 1.023,0.735 4.683,3.383 6.027,3.754 -0.016,0.336 0,0.774 0.047,1.18 0.047,0.453 0.191,1.801 0.379,2.855 z m -39.664,76.075 c -1.414,-0.43 -2.539,-0.539 -3.043,-0.383 -0.586,0.219 -1.168,0.683 -2.52,2.109 -1.543,1.633 -1.699,2.215 -1.687,2.649 0.035,0.593 0.609,1.25 1.593,2.175 l 2.61,2.469 c 0.488,0.457 0.554,0.418 1.082,-0.137 l 1.015,-1.078 c 0.684,-0.722 1.082,-1.183 1.254,-1.515 0.262,-0.457 0.106,-0.848 -0.16,-1.239 l -0.562,-0.847 c -0.02,-0.203 0.277,-0.516 0.472,-0.469 0.41,0.387 1.047,1.125 1.715,1.758 0.703,0.664 1.496,1.273 1.942,1.695 0.058,0.199 -0.243,0.512 -0.442,0.5 l -0.898,-0.57 c -0.547,-0.344 -0.789,-0.324 -1.071,-0.172 -0.281,0.156 -0.863,0.695 -1.597,1.473 l -1.016,1.078 c -0.527,0.554 -0.582,0.609 -0.062,1.101 l 3.711,3.504 c 0.703,0.664 0.738,0.699 1.269,0.149 l 1.258,-1.336 c 0.773,-0.817 1.312,-1.43 1.586,-1.907 0.676,-1.191 0.18,-1.972 -0.426,-3.074 -0.027,-0.195 0.293,-0.457 0.473,-0.429 0.746,0.847 1.972,2.218 2.187,2.625 -0.269,0.171 -1.297,1.265 -2.418,2.453 l -3.301,3.488 c -0.714,0.754 -1.289,1.406 -2.007,2.238 -0.164,0.059 -0.532,-0.219 -0.496,-0.402 l 0.238,-0.332 c 0.902,-1.215 0.664,-1.516 -1.27,-3.336 l -6.672,-6.305 c -1.945,-1.847 -2.312,-2.012 -3.41,-1.043 l -0.629,0.559 c -0.214,0.008 -0.476,-0.313 -0.425,-0.477 1.07,-1.054 1.683,-1.668 2.433,-2.465 l 1.574,-1.675 c 1.559,-1.645 3.106,-3.313 4.645,-5.02 0.73,0.235 2.594,1.117 3.363,1.598 0.098,0.238 -0.09,0.547 -0.308,0.59 z m 36.363,-97.305 -0.149,-0.383 c -0.55,-1.418 -0.933,-1.367 -3.5,-0.711 l -8.902,2.285 c -2.586,0.664 -2.926,0.879 -2.687,2.317 l 0.129,0.836 c -0.106,0.187 -0.516,0.242 -0.625,0.109 -0.329,-1.469 -0.516,-2.316 -0.789,-3.379 l -0.571,-2.222 c -0.562,-2.204 -1.152,-4.395 -1.769,-6.61 0.582,-0.492 2.324,-1.594 3.148,-1.984 0.246,0.039 0.406,0.367 0.336,0.57 -1.129,0.973 -1.816,1.859 -1.949,2.367 -0.133,0.614 -0.055,1.356 0.433,3.258 0.567,2.176 0.965,2.625 1.34,2.848 0.524,0.285 1.375,0.144 2.692,-0.192 l 3.48,-0.89 c 0.645,-0.164 0.649,-0.246 0.465,-0.989 l -0.375,-1.433 c -0.242,-0.965 -0.422,-1.551 -0.606,-1.871 -0.257,-0.465 -0.664,-0.543 -1.14,-0.524 l -1.02,0.024 c -0.179,-0.086 -0.289,-0.508 -0.136,-0.649 0.543,-0.136 1.504,-0.281 2.394,-0.508 0.938,-0.238 1.875,-0.589 2.469,-0.738 0.203,0.051 0.312,0.469 0.191,0.637 l -0.961,0.457 c -0.586,0.277 -0.695,0.488 -0.711,0.812 -0.027,0.321 0.125,1.102 0.395,2.141 l 0.359,1.43 c 0.196,0.746 0.207,0.816 0.907,0.64 l 4.941,-1.265 c 0.938,-0.242 0.992,-0.254 0.789,-0.996 l -0.453,-1.778 c -0.277,-1.09 -0.5,-1.875 -0.758,-2.363 -0.648,-1.199 -1.574,-1.203 -2.832,-1.273 -0.18,-0.09 -0.234,-0.493 -0.105,-0.629 1.109,-0.184 2.925,-0.489 3.39,-0.45 0,0.317 0.375,1.774 0.781,3.356 l 1.184,4.648 c 0.258,1.012 0.5,1.844 0.82,2.891 -0.031,0.172 -0.464,0.336 -0.605,0.211 z m -22.652,76.902 8.011,4.27 c 2.387,1.273 2.793,1.43 3.618,0.16 l 0.339,-0.539 c 0.164,-0.086 0.551,0.176 0.543,0.344 -0.648,1.105 -1.074,1.859 -1.554,2.757 -0.504,0.946 -0.887,1.719 -1.446,2.875 -0.136,0.098 -0.566,-0.074 -0.586,-0.257 l 0.254,-0.586 c 0.594,-1.391 0.242,-1.633 -2.148,-2.907 l -8.02,-4.273 c -2.39,-1.27 -2.722,-1.391 -3.59,-0.148 l -0.367,0.527 c -0.203,0.062 -0.543,-0.176 -0.539,-0.344 0.645,-1.101 1.078,-1.859 1.578,-2.801 0.481,-0.902 0.864,-1.679 1.422,-2.832 0.141,-0.093 0.571,0.075 0.586,0.254 l -0.23,0.602 c -0.551,1.418 -0.254,1.625 2.129,2.898 z M 751,423.629 c -0.91,1.332 -1.242,2.273 -0.918,3.183 0.266,0.708 0.891,1.231 2.008,2 l 7.758,5.329 c 0.953,0.648 1.507,0.968 1.746,0.882 0.238,-0.078 0.871,-0.632 1.722,-1.878 3.786,-5.508 0.641,-9.309 -1.675,-10.899 -3.907,-2.684 -7.836,-2.695 -10.641,1.383 z m 12.129,-3.453 c 2.777,1.906 4.191,4.984 3.273,8.527 -0.437,1.715 -1.332,3.293 -2.554,5.059 -1.227,1.785 -2.453,3.445 -3.789,5.164 -0.227,0.156 -0.547,-0.098 -0.536,-0.34 l 0.247,-0.504 c 0.48,-0.973 0.113,-1.379 -1.36,-2.394 l -7.984,-5.489 c -2.211,-1.511 -2.492,-1.644 -3.5,-0.543 l -0.395,0.442 c -0.215,0.039 -0.515,-0.239 -0.492,-0.41 0.715,-0.954 1.262,-1.7 1.863,-2.579 0.508,-0.734 1.266,-2.199 2.188,-3.543 1.113,-1.625 2.57,-3.156 4.25,-4.015 2.945,-1.504 6.117,-1.215 8.789,0.625 z M 680.168,252.625 Z m -31.203,188.262 c -0.016,0.027 -0.027,0.054 -0.055,0.082 -0.078,0.082 -0.226,0.441 -0.348,0.859 0.497,-0.043 1.282,-0.246 2.434,-0.879 -0.801,-0.144 -1.527,-0.113 -2.031,-0.062 z m 3.574,0.008 c -1.82,1.199 -3.293,1.757 -4.383,1.671 -0.054,0.012 -0.105,0.016 -0.172,0 -0.023,-0.004 -0.035,-0.019 -0.058,-0.027 -0.145,-0.023 -0.274,-0.059 -0.406,-0.109 l -0.075,-0.043 c -0.172,-0.117 -0.218,-0.352 -0.105,-0.52 0.113,-0.152 0.305,-0.195 0.465,-0.121 0.07,-0.226 0.156,-0.508 0.254,-0.754 -0.11,-0.043 -0.211,-0.129 -0.243,-0.258 -0.05,-0.195 0.063,-0.402 0.262,-0.457 0.082,-0.015 1.883,-0.48 3.828,0.129 0.078,-0.051 0.145,-0.09 0.215,-0.136 0.176,-0.118 0.406,-0.067 0.524,0.101 0.117,0.176 0.066,0.41 -0.106,0.524 z M 618.484,311.969 c 0.539,0 0.973,-0.438 0.973,-0.973 0,-0.531 -0.434,-0.965 -0.973,-0.965 -0.527,0 -0.964,0.434 -0.964,0.965 0,0.535 0.437,0.973 0.964,0.973 z m 0,-2.383 c 0.778,0 1.414,0.637 1.414,1.41 0,0.785 -0.636,1.418 -1.414,1.418 -0.777,0 -1.414,-0.633 -1.414,-1.418 0,-0.773 0.637,-1.41 1.414,-1.41 z m 16.344,2.383 c 0.535,0 0.973,-0.438 0.973,-0.973 0,-0.531 -0.438,-0.965 -0.973,-0.965 -0.535,0 -0.969,0.434 -0.969,0.965 0,0.535 0.434,0.973 0.969,0.973 z m 0,-2.383 c 0.781,0 1.418,0.637 1.418,1.41 0,0.785 -0.637,1.418 -1.418,1.418 -0.777,0 -1.414,-0.633 -1.414,-1.418 0,-0.773 0.637,-1.41 1.414,-1.41 z m -8.047,2.383 c 0.535,0 0.973,-0.438 0.973,-0.973 0,-0.531 -0.438,-0.965 -0.973,-0.965 -0.535,0 -0.969,0.434 -0.969,0.965 0,0.535 0.434,0.973 0.969,0.973 z m 0,-2.383 c 0.774,0 1.418,0.637 1.418,1.41 0,0.785 -0.644,1.418 -1.418,1.418 -0.781,0 -1.414,-0.633 -1.414,-1.418 0,-0.773 0.633,-1.41 1.414,-1.41 z m 69.199,0.445 c -0.531,0 -0.968,0.434 -0.968,0.965 0,0.535 0.437,0.973 0.968,0.973 0.532,0 0.977,-0.438 0.977,-0.973 0,-0.531 -0.445,-0.965 -0.977,-0.965 z m 0,2.383 c -0.769,0 -1.41,-0.633 -1.41,-1.418 0,-0.773 0.641,-1.41 1.41,-1.41 0.782,0 1.418,0.637 1.418,1.41 0,0.785 -0.636,1.418 -1.418,1.418 z m 8.297,-2.383 c -0.535,0 -0.968,0.434 -0.968,0.965 0,0.535 0.433,0.973 0.968,0.973 0.535,0 0.973,-0.438 0.973,-0.973 0,-0.531 -0.438,-0.965 -0.973,-0.965 z m 0,2.383 c -0.777,0 -1.41,-0.633 -1.41,-1.418 0,-0.773 0.633,-1.41 1.41,-1.41 0.782,0 1.418,0.637 1.418,1.41 0,0.785 -0.636,1.418 -1.418,1.418 z m 8.297,-2.383 c -0.543,0 -0.972,0.434 -0.972,0.965 0,0.535 0.429,0.973 0.972,0.973 0.535,0 0.973,-0.438 0.973,-0.973 0,-0.531 -0.438,-0.965 -0.973,-0.965 z m 0,2.383 c -0.781,0 -1.418,-0.633 -1.418,-1.418 0,-0.773 0.637,-1.41 1.418,-1.41 0.778,0 1.41,0.637 1.41,1.41 0,0.785 -0.632,1.418 -1.41,1.418 z m 8.289,-2.383 c -0.535,0 -0.965,0.434 -0.965,0.965 0,0.535 0.43,0.973 0.965,0.973 0.539,0 0.973,-0.438 0.973,-0.973 0,-0.531 -0.434,-0.965 -0.973,-0.965 z m 0,2.383 c -0.777,0 -1.41,-0.633 -1.41,-1.418 0,-0.773 0.633,-1.41 1.41,-1.41 0.785,0 1.414,0.637 1.414,1.41 0,0.785 -0.629,1.418 -1.414,1.418 z m 8.301,-2.383 c -0.539,0 -0.973,0.434 -0.973,0.965 0,0.535 0.434,0.973 0.973,0.973 0.531,0 0.961,-0.438 0.961,-0.973 0,-0.531 -0.43,-0.965 -0.961,-0.965 z m 0,2.383 c -0.785,0 -1.418,-0.633 -1.418,-1.418 0,-0.773 0.633,-1.41 1.418,-1.41 0.777,0 1.406,0.637 1.406,1.41 0,0.785 -0.629,1.418 -1.406,1.418 z m 8.289,-2.383 c -0.531,0 -0.973,0.434 -0.973,0.965 0,0.535 0.442,0.973 0.973,0.973 0.535,0 0.973,-0.438 0.973,-0.973 0,-0.531 -0.438,-0.965 -0.973,-0.965 z m 0,2.383 c -0.773,0 -1.414,-0.633 -1.414,-1.418 0,-0.773 0.641,-1.41 1.414,-1.41 0.781,0 1.418,0.637 1.418,1.41 0,0.785 -0.637,1.418 -1.418,1.418 z m 8.293,-2.383 c -0.531,0 -0.965,0.434 -0.965,0.965 0,0.535 0.434,0.973 0.965,0.973 0.539,0 0.973,-0.438 0.973,-0.973 0,-0.531 -0.434,-0.965 -0.973,-0.965 z m 0,2.383 c -0.777,0 -1.41,-0.633 -1.41,-1.418 0,-0.773 0.633,-1.41 1.41,-1.41 0.781,0 1.414,0.637 1.414,1.41 0,0.785 -0.633,1.418 -1.414,1.418" /><text
   id="text18"
   style="font-variant:normal;font-weight:bold;font-size:64px;font-family:GaramondNo8;-inkscape-font-specification:GaramondNo8-Bold;writing-mode:lr-tb;fill:#000000;fill-opacity:1;fill-rule:nonzero;stroke:none"
   transform="scale(1,-1)"
   x="33.057949"
   y="-132.42036"><tspan
     id="tspan16"
     sodipodi:role="line"
     y="-132.42036"
     x="33.057949 84.961952 139.23395 164.00195 211.23395 251.36195 298.59396 332.83395 357.60196 397.02594 445.40994 463.07394 516.19391 556.3219 608.28992 647.2019 671.96991 689.63391 723.4259 765.92194 817.82593 870.94592 895.71393 913.37793 966.49792 991.26593 1008.9299 1068.8979 1093.666 1133.858 1182.2419 1236.13">UNIVERSITÀ DEGLI STUDI DI MILANO</tspan></text>

<text
   id="text22"
   style="font-variant:normal;font-weight:normal;font-size:64px;font-family:GaramondNo8;-inkscape-font-specification:GaramondNo8-Regular;writing-mode:lr-tb;fill:#000000;fill-opacity:1;fill-rule:nonzero;stroke:none"
   transform="scale(1,-1)"
   x="64.192482"
   y="-25.187017"><tspan
     id="tspan20"
     sodipodi:role="line"
     y="-25.187017"
     x="64.192482 97.024483 140.86449 188.09648 242.36848 276.35251 316.67249 365.05652 381.56851 432.3205 453.56851">FACOLTÀ DI MEDICINA E CHIRURGIA</tspan></text>

<text
   id="text22-3"
   style="font-style:normal;font-variant:normal;font-weight:normal;font-stretch:normal;font-size:63.99999619px;font-family:GaramondNo8;-inkscape-font-specification:GaramondNo8;writing-mode:lr-tb;fill:#000000;fill-opacity:1;fill-rule:nonzero;stroke:none;stroke-width:0.99999994"
   x="662.17419"
   y="66.16967"
   transform="scale(1,-1)"><tspan
     style="font-style:italic;font-variant:normal;font-weight:normal;font-stretch:normal;font-size:60px;font-family:GaramondNo8;-inkscape-font-specification:'GaramondNo8 Italic';font-variant-ligatures:normal;font-variant-caps:normal;font-variant-numeric:normal;font-feature-settings:normal;text-align:center;writing-mode:lr-tb;text-anchor:middle;stroke-width:0.99999994"
     sodipodi:role="line"
     x="662.17419"
     y="66.16967"
     id="tspan835">Dipartimento di Biotecnologie Mediche e Medicina Traslazionale</tspan></text>
</g></svg>